%!PS-Adobe-2.0 EPSF-2.0
%%Title: bild_zu_lang2.eps
%%Creator: fig2dev Version 3.2.3 Patchlevel 
%%CreationDate: Sun Nov 18 16:19:27 2001
%%For: harders@dose (Harald Harders)
%%BoundingBox: 0 0 122 87
%%Magnification: 1.0000
%%EndComments
/$F2psDict 200 dict def
$F2psDict begin
$F2psDict /mtrx matrix put
/col-1 {0 setgray} bind def
/col0 {0.000 0.000 0.000 srgb} bind def
/col1 {0.000 0.000 1.000 srgb} bind def
/col2 {0.000 1.000 0.000 srgb} bind def
/col3 {0.000 1.000 1.000 srgb} bind def
/col4 {1.000 0.000 0.000 srgb} bind def
/col5 {1.000 0.000 1.000 srgb} bind def
/col6 {1.000 1.000 0.000 srgb} bind def
/col7 {1.000 1.000 1.000 srgb} bind def
/col8 {0.000 0.000 0.560 srgb} bind def
/col9 {0.000 0.000 0.690 srgb} bind def
/col10 {0.000 0.000 0.820 srgb} bind def
/col11 {0.530 0.810 1.000 srgb} bind def
/col12 {0.000 0.560 0.000 srgb} bind def
/col13 {0.000 0.690 0.000 srgb} bind def
/col14 {0.000 0.820 0.000 srgb} bind def
/col15 {0.000 0.560 0.560 srgb} bind def
/col16 {0.000 0.690 0.690 srgb} bind def
/col17 {0.000 0.820 0.820 srgb} bind def
/col18 {0.560 0.000 0.000 srgb} bind def
/col19 {0.690 0.000 0.000 srgb} bind def
/col20 {0.820 0.000 0.000 srgb} bind def
/col21 {0.560 0.000 0.560 srgb} bind def
/col22 {0.690 0.000 0.690 srgb} bind def
/col23 {0.820 0.000 0.820 srgb} bind def
/col24 {0.500 0.190 0.000 srgb} bind def
/col25 {0.630 0.250 0.000 srgb} bind def
/col26 {0.750 0.380 0.000 srgb} bind def
/col27 {1.000 0.500 0.500 srgb} bind def
/col28 {1.000 0.630 0.630 srgb} bind def
/col29 {1.000 0.750 0.750 srgb} bind def
/col30 {1.000 0.880 0.880 srgb} bind def
/col31 {1.000 0.840 0.000 srgb} bind def

end
save
newpath 0 87 moveto 0 0 lineto 122 0 lineto 122 87 lineto closepath clip newpath
-92.0 171.0 translate
1 -1 scale

/cp {closepath} bind def
/ef {eofill} bind def
/gr {grestore} bind def
/gs {gsave} bind def
/sa {save} bind def
/rs {restore} bind def
/l {lineto} bind def
/m {moveto} bind def
/rm {rmoveto} bind def
/n {newpath} bind def
/s {stroke} bind def
/sh {show} bind def
/slc {setlinecap} bind def
/slj {setlinejoin} bind def
/slw {setlinewidth} bind def
/srgb {setrgbcolor} bind def
/rot {rotate} bind def
/sc {scale} bind def
/sd {setdash} bind def
/ff {findfont} bind def
/sf {setfont} bind def
/scf {scalefont} bind def
/sw {stringwidth} bind def
/tr {translate} bind def
/tnt {dup dup currentrgbcolor
  4 -2 roll dup 1 exch sub 3 -1 roll mul add
  4 -2 roll dup 1 exch sub 3 -1 roll mul add
  4 -2 roll dup 1 exch sub 3 -1 roll mul add srgb}
  bind def
/shd {dup dup currentrgbcolor 4 -2 roll mul 4 -2 roll mul
  4 -2 roll mul srgb} bind def
/$F2psBegin {$F2psDict begin /$F2psEnteredState save def} def
/$F2psEnd {$F2psEnteredState restore end} def

$F2psBegin
%%Page: 1 1
10 setmiterlimit
 0.06299 0.06299 sc
% Polyline
15.000 slw
n 1620 1485 m
 2340 1485 l gs col0 s gr 
% Polyline
n 1620 1530 m
 2340 1530 l gs col0 s gr 
% Polyline
n 1620 1575 m
 2340 1575 l gs col0 s gr 
% Polyline
n 1620 1620 m
 2340 1620 l gs col0 s gr 
% Polyline
n 1620 1665 m
 2340 1665 l gs col0 s gr 
% Polyline
n 1620 1710 m
 2025 1710 l gs col0 s gr 
% Polyline
n 1665 2385 m
 2340 2385 l gs col0 s gr 
% Polyline
n 1620 2430 m
 2340 2430 l gs col0 s gr 
% Polyline
n 1620 2475 m
 2340 2475 l gs col0 s gr 
% Polyline
n 1620 2520 m
 2340 2520 l gs col0 s gr 
% Polyline
n 1665 1980 m
 2340 1980 l gs col0 s gr 
% Polyline
n 1620 2025 m
 2340 2025 l gs col0 s gr 
% Polyline
n 1620 2115 m
 2205 2115 l gs col0 s gr 
% Polyline
n 1620 2070 m
 2340 2070 l gs col0 s gr 
% Polyline
7.500 slw
n 2430 1350 m 1485 1350 l 1485 2700 l 2430 2700 l
 cp gs col0 s gr 
% Polyline
n 2340 1485 m 1620 1485 l 1620 2520 l 2340 2520 l
 cp gs col0 s gr 
% Polyline
n 2430 1350 m 3375 1350 l 3375 2700 l 2430 2700 l
 cp gs col0 s gr 
% Polyline
n 2520 1485 m 3240 1485 l 3240 2520 l 2520 2520 l
 cp gs col0 s gr 
% Polyline
15.000 slw
n 2520 2025 m
 3240 2025 l gs col0 s gr 
% Polyline
n 2520 2070 m
 3240 2070 l gs col0 s gr 
% Polyline
n 2520 2115 m
 3240 2115 l gs col0 s gr 
% Polyline
n 2520 2160 m
 2925 2160 l gs col0 s gr 
% Polyline
n 2565 2205 m
 3240 2205 l gs col0 s gr 
% Polyline
n 2520 2250 m
 3240 2250 l gs col0 s gr 
% Polyline
n 2520 2340 m
 3105 2340 l gs col0 s gr 
% Polyline
n 2565 2385 m
 3240 2385 l gs col0 s gr 
% Polyline
n 2520 2430 m
 3240 2430 l gs col0 s gr 
% Polyline
n 2520 2475 m
 3240 2475 l gs col0 s gr 
% Polyline
n 2520 2520 m
 3240 2520 l gs col0 s gr 
% Polyline
n 2520 2295 m
 3240 2295 l gs col0 s gr 
% Polyline
n 3150 1485 m 2610 1485 l 2610 1935 l 3150 1935 l
 cp gs 0.50 setgray ef gr gs col0 s gr 
$F2psEnd
rs
