StartFontMetrics 2.0
Comment AFM Generated by Ghostscript/pf2afm
FontName dozchit-Medium
FullName dozchit
FamilyName dozchit
Weight Medium
Notice Font converted to Type 1 by mf2pt1, written by Scott Pakin.
ItalicAngle -14.0362
IsFixedPitch true
UnderlinePosition -100
UnderlineThickness 50
Version 001.000
EncodingScheme FontSpecific
FontBBox 45 -25 576 672
StartCharMetrics 2
C 69 ; WX 460 ; N E ; B 45 -25 566 670 ;
C 88 ; WX 460 ; N X ; B 99 0 576 672 ;
EndCharMetrics
EndFontMetrics
