StartFontMetrics 2.0
Comment AFM Generated by Ghostscript/pf2afm
FontName dozchars-Medium
FullName dozchars
FamilyName dozchars
Weight Medium
Notice Font converted to Type 1 by mf2pt1, written by Scott Pakin.
ItalicAngle 0
IsFixedPitch true
UnderlinePosition -100
UnderlineThickness 50
Version 001.000
EncodingScheme FontSpecific
FontBBox 33 -22 445 667
StartCharMetrics 2
C 69 ; WX 500 ; N E ; B 33 -22 445 667 ;
C 88 ; WX 500 ; N X ; B 54 -22 444 656 ;
EndCharMetrics
EndFontMetrics
