%!PS
%%BoundingBox: -2 -2 265 346 
%%Creator: MetaPost
%%CreationDate: 1999.07.22:0839
%%Pages: 1
%%EndProlog
%%Page: 1 1
 0.8 0.8 0.8 setrgbcolor 0 3.5433
 dtransform truncate idtransform setlinewidth pop [] 0 setdash 1 setlinejoin
 10 setmiterlimit
newpath 0 0 moveto
87.73148 0 175.46695 0 263.19843 0 curveto
263.19843 114.64351 263.19843 229.29225 263.19843 343.93576 curveto
175.46695 343.93576 87.73148 343.93576 0 343.93576 curveto
0 229.29225 0 114.64351 0 0 curveto closepath stroke
showpage
%%EOF
