\relax 
\providecommand*{\memsetcounter}[2]{}
\bibstyle{biblatex}
\bibdata{example-blx,xampl}
\citation{biblatex-control}
\@writefile{toc}{\boolfalse {citerequest}\boolfalse {citetracker}\boolfalse {pagetracker}\boolfalse {backtracker}\relax }
\@writefile{lof}{\boolfalse {citerequest}\boolfalse {citetracker}\boolfalse {pagetracker}\boolfalse {backtracker}\relax }
\@writefile{lot}{\boolfalse {citerequest}\boolfalse {citetracker}\boolfalse {pagetracker}\boolfalse {backtracker}\relax }
\citation{article-full}
\newlabel{pstool-./trial}{{}{2}}
\citation{incollection-full}
\newlabel{pstool-subdir/trial2-psfrag}{{}{3}}
\newlabel{eq1}{{\M@TitleReference {1}{}}{i}}
\newlabel{eq2}{{\M@TitleReference {2}{}}{i}}
\newlabel{eq3}{{\M@TitleReference {3}{}}{i}}
\newlabel{pstool-./trial2}{{}{2}}
\memsetcounter{lastsheet}{6}
\memsetcounter{lastpage}{2}
