\relax 
\providecommand*{\memsetcounter}[2]{}
\bibstyle{biblatex}
\bibdata{trial2-pstool-blx,xampl}
\citation{biblatex-control}
%<*PSTOOLLABELS>
%</PSTOOLLABELS>
\memsetcounter{lastsheet}{1}
\memsetcounter{lastpage}{2}
