\relax 
\providecommand*{\memsetcounter}[2]{}
\bibstyle{biblatex}
\bibdata{trial-pstool-blx,xampl}
\citation{biblatex-control}
%<*PSTOOLLABELS>
\citation{article-full}
%</PSTOOLLABELS>
\memsetcounter{lastsheet}{1}
\memsetcounter{lastpage}{2}
