%!PS-Adobe-2.0-EPSF
%%BoundingBox: 0 0 600 600
10 10 moveto
590 10 lineto
590 590 lineto
10 590 lineto
closepath
stroke
100 380 moveto
/Ryumin-Light-H findfont 70 scalefont setfont
(%F%9%H) show
100 280 moveto
/Helvetica findfont 70 scalefont setfont
(JIS) show
100 180 moveto
/Ryumin-Light-H findfont 70 scalefont setfont
($GId9f2=) show
