StartFontMetrics 2.0
Comment Generated by FontForge 20110222
Comment Creation Date: Fri Feb 15 14:35:00 2013
FontName Garuda-Bold
FullName Garuda Bold
FamilyName Garuda
Weight Bold
Notice (Generated by NECTEC for Public Domain)
Comment 
Comment Modified under GNU General Public License by TLWG
ItalicAngle 0
IsFixedPitch false
UnderlinePosition -27
UnderlineThickness 20
Version 2.66: 2012-02-13
EncodingScheme ISO10646-1
FontBBox -750 -591 1099 1337
CapHeight 700
XHeight 521
Ascender 700
Descender -199
StartCharMetrics 357
C 32 ; WX 344 ; N space ; B 0 0 0 0 ;
C 33 ; WX 308 ; N exclam ; B 94 2 227 700 ;
C 34 ; WX 458 ; N quotedbl ; B 61 455 397 697 ;
C 35 ; WX 597 ; N numbersign ; B 31 0 567 700 ;
C 36 ; WX 574 ; N dollar ; B 92 -75 528 700 ;
C 37 ; WX 697 ; N percent ; B 41 -8 684 700 ;
C 38 ; WX 717 ; N ampersand ; B 31 -5 684 716 ;
C 39 ; WX 298 ; N quotesingle ; B 100 489 199 731 ;
C 40 ; WX 378 ; N parenleft ; B 57 -167 269 731 ;
C 41 ; WX 378 ; N parenright ; B 68 -167 279 731 ;
C 42 ; WX 597 ; N asterisk ; B 94 327 504 752 ;
C 43 ; WX 565 ; N plus ; B 66 64 510 553 ;
C 44 ; WX 252 ; N comma ; B 47 -161 206 159 ;
C 45 ; WX 455 ; N hyphen ; B 40 232 412 332 ;
C 46 ; WX 217 ; N period ; B 51 0 185 147 ;
C 47 ; WX 597 ; N slash ; B 32 0 570 700 ;
C 48 ; WX 697 ; N zero ; B 81 0 657 700 ;
C 49 ; WX 697 ; N one ; B 162 0 494 700 ;
C 50 ; WX 697 ; N two ; B 105 0 672 714 ;
C 51 ; WX 697 ; N three ; B 101 -8 679 706 ;
C 52 ; WX 697 ; N four ; B 69 0 700 700 ;
C 53 ; WX 697 ; N five ; B 118 -12 682 700 ;
C 54 ; WX 697 ; N six ; B 110 -12 674 713 ;
C 55 ; WX 697 ; N seven ; B 132 0 661 700 ;
C 56 ; WX 697 ; N eight ; B 110 -6 669 705 ;
C 57 ; WX 697 ; N nine ; B 113 -8 673 710 ;
C 58 ; WX 294 ; N colon ; B 75 2 208 529 ;
C 59 ; WX 320 ; N semicolon ; B 74 -161 233 524 ;
C 60 ; WX 597 ; N less ; B 74 63 524 533 ;
C 61 ; WX 544 ; N equal ; B 66 138 497 492 ;
C 62 ; WX 597 ; N greater ; B 74 63 524 533 ;
C 63 ; WX 538 ; N question ; B 62 -2 483 707 ;
C 64 ; WX 784 ; N at ; B 56 -26 728 723 ;
C 65 ; WX 628 ; N A ; B 25 0 584 700 ;
C 66 ; WX 646 ; N B ; B 83 0 590 700 ;
C 67 ; WX 646 ; N C ; B 51 -5 595 716 ;
C 68 ; WX 646 ; N D ; B 55 0 593 700 ;
C 69 ; WX 568 ; N E ; B 80 0 523 700 ;
C 70 ; WX 530 ; N F ; B 80 0 520 700 ;
C 71 ; WX 646 ; N G ; B 37 -5 599 716 ;
C 72 ; WX 657 ; N H ; B 60 0 605 700 ;
C 73 ; WX 294 ; N I ; B 84 0 202 700 ;
C 74 ; WX 482 ; N J ; B 29 -5 445 700 ;
C 75 ; WX 628 ; N K ; B 80 0 593 700 ;
C 76 ; WX 490 ; N L ; B 75 0 466 700 ;
C 77 ; WX 862 ; N M ; B 80 0 777 700 ;
C 78 ; WX 646 ; N N ; B 80 0 561 700 ;
C 79 ; WX 646 ; N O ; B 38 -5 598 716 ;
C 80 ; WX 625 ; N P ; B 63 0 566 700 ;
C 81 ; WX 646 ; N Q ; B 38 -153 598 716 ;
C 82 ; WX 659 ; N R ; B 54 0 630 700 ;
C 83 ; WX 588 ; N S ; B 26 -5 524 716 ;
C 84 ; WX 530 ; N T ; B 31 0 490 700 ;
C 85 ; WX 646 ; N U ; B 69 -5 586 700 ;
C 86 ; WX 588 ; N V ; B 38 0 558 700 ;
C 87 ; WX 882 ; N W ; B 26 0 860 700 ;
C 88 ; WX 628 ; N X ; B 46 0 579 700 ;
C 89 ; WX 588 ; N Y ; B 35 0 556 700 ;
C 90 ; WX 646 ; N Z ; B 86 0 593 700 ;
C 91 ; WX 387 ; N bracketleft ; B 98 -190 289 700 ;
C 92 ; WX 415 ; N backslash ; B 40 0 360 700 ;
C 93 ; WX 387 ; N bracketright ; B 98 -201 289 700 ;
C 94 ; WX 588 ; N asciicircum ; B 77 285 511 716 ;
C 95 ; WX 556 ; N underscore ; B -15 -199 569 -135 ;
C 96 ; WX 372 ; N grave ; B 64 592 310 798 ;
C 97 ; WX 536 ; N a ; B 48 -5 523 526 ;
C 98 ; WX 541 ; N b ; B 63 -5 506 700 ;
C 99 ; WX 530 ; N c ; B 46 -5 487 526 ;
C 100 ; WX 530 ; N d ; B 48 -5 484 700 ;
C 101 ; WX 530 ; N e ; B 43 -5 478 526 ;
C 102 ; WX 294 ; N f ; B 28 0 294 714 ;
C 103 ; WX 525 ; N g ; B 20 -231 469 526 ;
C 104 ; WX 530 ; N h ; B 64 0 472 700 ;
C 105 ; WX 254 ; N i ; B 72 0 179 700 ;
C 106 ; WX 254 ; N j ; B -23 -231 179 700 ;
C 107 ; WX 548 ; N k ; B 74 0 517 700 ;
C 108 ; WX 254 ; N l ; B 72 0 179 700 ;
C 109 ; WX 804 ; N m ; B 66 0 737 526 ;
C 110 ; WX 530 ; N n ; B 67 0 463 526 ;
C 111 ; WX 536 ; N o ; B 40 -5 496 526 ;
C 112 ; WX 536 ; N p ; B 54 -199 495 526 ;
C 113 ; WX 530 ; N q ; B 34 -199 481 526 ;
C 114 ; WX 346 ; N r ; B 49 0 319 526 ;
C 115 ; WX 482 ; N s ; B 32 -5 456 526 ;
C 116 ; WX 372 ; N t ; B 23 -5 326 700 ;
C 117 ; WX 530 ; N u ; B 72 -5 458 521 ;
C 118 ; WX 469 ; N v ; B 28 0 454 521 ;
C 119 ; WX 726 ; N w ; B 26 0 699 521 ;
C 120 ; WX 530 ; N x ; B 49 0 477 521 ;
C 121 ; WX 470 ; N y ; B 38 -231 449 521 ;
C 122 ; WX 412 ; N z ; B 23 0 379 521 ;
C 123 ; WX 402 ; N braceleft ; B 67 -182 335 702 ;
C 124 ; WX 294 ; N bar ; B 104 -196 190 714 ;
C 125 ; WX 402 ; N braceright ; B 67 -185 335 699 ;
C 126 ; WX 588 ; N asciitilde ; B 28 220 562 425 ;
C 160 ; WX 156 ; N nonbreakingspace ; B 0 0 0 0 ;
C 161 ; WX 332 ; N exclamdown ; B 111 -199 229 518 ;
C 162 ; WX 556 ; N cent ; B 52 -196 519 711 ;
C 163 ; WX 556 ; N sterling ; B 6 -5 539 730 ;
C 164 ; WX 556 ; N currency ; B 21 101 532 610 ;
C 165 ; WX 556 ; N yen ; B 9 0 543 716 ;
C 166 ; WX 278 ; N brokenbar ; B 87 -210 194 730 ;
C 167 ; WX 556 ; N section ; B 29 -210 521 730 ;
C 168 ; WX 332 ; N dieresis ; B 2 610 331 730 ;
C 169 ; WX 735 ; N copyright ; B -5 -18 745 731 ;
C 170 ; WX 369 ; N ordfeminine ; B 18 363 346 730 ;
C 171 ; WX 556 ; N guillemotleft ; B 48 34 501 480 ;
C 172 ; WX 583 ; N logicalnot ; B 41 184 543 524 ;
C 173 ; WX 332 ; N minus ; B 32 228 302 328 ;
C 174 ; WX 735 ; N registered ; B -5 -18 745 731 ;
C 175 ; WX 551 ; N macron ; B -9 759 561 848 ;
C 176 ; WX 400 ; N degree ; B 41 417 354 730 ;
C 177 ; WX 548 ; N plusminus ; B 25 0 526 674 ;
C 178 ; WX 332 ; N twosuperior ; B 12 356 310 725 ;
C 179 ; WX 332 ; N threesuperior ; B 20 349 314 725 ;
C 180 ; WX 332 ; N acute ; B 92 582 313 730 ;
C 181 ; WX 576 ; N mu ; B 54 -199 526 521 ;
C 182 ; WX 556 ; N paragraph ; B 0 -196 552 716 ;
C 183 ; WX 277 ; N periodcentered ; B 72 281 208 417 ;
C 184 ; WX 332 ; N cedilla ; B 18 -205 285 -6 ;
C 185 ; WX 332 ; N onesuperior ; B 44 356 242 725 ;
C 186 ; WX 364 ; N ordmasculine ; B 12 362 351 730 ;
C 187 ; WX 556 ; N guillemotright ; B 52 34 506 480 ;
C 188 ; WX 833 ; N onequarter ; B 44 -26 825 725 ;
C 189 ; WX 833 ; N onehalf ; B 44 -26 809 725 ;
C 190 ; WX 833 ; N threequarters ; B 20 -26 825 725 ;
C 191 ; WX 610 ; N questiondown ; B 57 -205 556 521 ;
C 192 ; WX 628 ; N Agrave ; B 25 0 584 1000 ;
C 193 ; WX 628 ; N Aacute ; B 25 0 584 932 ;
C 194 ; WX 628 ; N Acircumflex ; B 25 0 584 932 ;
C 195 ; WX 628 ; N Atilde ; B 25 0 584 915 ;
C 196 ; WX 628 ; N Adieresis ; B 25 0 584 909 ;
C 197 ; WX 628 ; N Aring ; B 25 0 584 953 ;
C 198 ; WX 999 ; N AE ; B 12 0 953 700 ;
C 199 ; WX 646 ; N Ccedilla ; B 51 -205 595 716 ;
C 200 ; WX 568 ; N Egrave ; B 80 0 523 1008 ;
C 201 ; WX 568 ; N Eacute ; B 80 0 523 940 ;
C 202 ; WX 568 ; N Ecircumflex ; B 80 0 523 940 ;
C 203 ; WX 568 ; N Edieresis ; B 80 0 523 909 ;
C 204 ; WX 294 ; N Igrave ; B -45 0 202 1000 ;
C 205 ; WX 294 ; N Iacute ; B 84 0 305 932 ;
C 206 ; WX 294 ; N Icircumflex ; B -23 0 308 932 ;
C 207 ; WX 294 ; N Idieresis ; B -21 0 308 917 ;
C 208 ; WX 721 ; N Eth ; B 26 0 673 716 ;
C 209 ; WX 646 ; N Ntilde ; B 80 0 561 908 ;
C 210 ; WX 646 ; N Ograve ; B 38 -5 598 1008 ;
C 211 ; WX 646 ; N Oacute ; B 38 -5 598 940 ;
C 212 ; WX 646 ; N Ocircumflex ; B 38 -5 598 940 ;
C 213 ; WX 646 ; N Otilde ; B 38 -5 598 923 ;
C 214 ; WX 646 ; N Odieresis ; B 38 -5 598 917 ;
C 215 ; WX 583 ; N multiply ; B 57 118 527 588 ;
C 216 ; WX 777 ; N Oslash ; B 31 -40 751 751 ;
C 217 ; WX 646 ; N Ugrave ; B 69 -5 586 1000 ;
C 218 ; WX 646 ; N Uacute ; B 69 -5 586 940 ;
C 219 ; WX 646 ; N Ucircumflex ; B 69 -5 586 940 ;
C 220 ; WX 646 ; N Udieresis ; B 69 -5 586 917 ;
C 221 ; WX 588 ; N Yacute ; B 35 0 556 940 ;
C 222 ; WX 666 ; N Thorn ; B 86 0 606 716 ;
C 223 ; WX 610 ; N germandbls ; B 77 -5 566 716 ;
C 224 ; WX 536 ; N agrave ; B 48 -5 523 798 ;
C 225 ; WX 536 ; N aacute ; B 48 -5 523 730 ;
C 226 ; WX 536 ; N acircumflex ; B 48 -5 523 730 ;
C 227 ; WX 536 ; N atilde ; B 48 -5 523 713 ;
C 228 ; WX 536 ; N adieresis ; B 48 -5 523 707 ;
C 229 ; WX 536 ; N aring ; B 48 -5 523 751 ;
C 230 ; WX 889 ; N ae ; B 58 -5 829 526 ;
C 231 ; WX 530 ; N ccedilla ; B 46 -205 487 526 ;
C 232 ; WX 530 ; N egrave ; B 43 -5 478 798 ;
C 233 ; WX 530 ; N eacute ; B 43 -5 478 730 ;
C 234 ; WX 530 ; N ecircumflex ; B 43 -5 478 730 ;
C 235 ; WX 530 ; N edieresis ; B 43 -5 478 707 ;
C 236 ; WX 254 ; N igrave ; B -54 0 192 798 ;
C 237 ; WX 254 ; N iacute ; B 63 0 284 730 ;
C 238 ; WX 254 ; N icircumflex ; B -43 0 288 730 ;
C 239 ; WX 254 ; N idieresis ; B -38 0 291 707 ;
C 240 ; WX 610 ; N eth ; B 58 -5 557 716 ;
C 241 ; WX 530 ; N ntilde ; B 67 0 463 713 ;
C 242 ; WX 536 ; N ograve ; B 40 -5 496 798 ;
C 243 ; WX 536 ; N oacute ; B 40 -5 496 730 ;
C 244 ; WX 536 ; N ocircumflex ; B 40 -5 496 730 ;
C 245 ; WX 536 ; N otilde ; B 40 -5 496 713 ;
C 246 ; WX 536 ; N odieresis ; B 40 -5 496 707 ;
C 247 ; WX 548 ; N divide ; B 25 99 524 608 ;
C 248 ; WX 610 ; N oslash ; B 49 -35 569 547 ;
C 249 ; WX 530 ; N ugrave ; B 72 -5 458 798 ;
C 250 ; WX 530 ; N uacute ; B 72 -5 458 730 ;
C 251 ; WX 530 ; N ucircumflex ; B 72 -5 458 730 ;
C 252 ; WX 530 ; N udieresis ; B 72 -5 458 707 ;
C 253 ; WX 470 ; N yacute ; B 38 -231 449 730 ;
C 254 ; WX 541 ; N thorn ; B 63 -199 506 716 ;
C 255 ; WX 470 ; N ydieresis ; B 38 -231 449 707 ;
C -1 ; WX 254 ; N dotlessi ; B 72 0 179 521 ;
C -1 ; WX 999 ; N OE ; B 50 -5 970 716 ;
C -1 ; WX 944 ; N oe ; B 60 -5 891 526 ;
C -1 ; WX 588 ; N Scaron ; B 26 -5 524 932 ;
C -1 ; WX 482 ; N scaron ; B 32 -5 456 730 ;
C -1 ; WX 588 ; N Ydieresis ; B 35 0 556 940 ;
C -1 ; WX 556 ; N florin ; B 7 -196 542 714 ;
C -1 ; WX 254 ; N dotlessj ; B -23 -231 179 521 ;
C -1 ; WX 332 ; N circumflex ; B 2 584 333 730 ;
C -1 ; WX 332 ; N caron ; B 2 584 333 730 ;
C -1 ; WX 551 ; N macron ; B -9 759 561 848 ;
C -1 ; WX 332 ; N ring ; B 71 559 262 751 ;
C -1 ; WX 332 ; N tilde ; B -6 589 331 713 ;
C -1 ; WX 576 ; N mu ; B 54 -199 526 521 ;
C -1 ; WX 674 ; N uni0E01 ; B 57 0 592 602 ;
C -1 ; WX 659 ; N uni0E02 ; B 29 0 580 602 ;
C -1 ; WX 669 ; N uni0E03 ; B 6 0 581 602 ;
C -1 ; WX 702 ; N uni0E04 ; B 65 0 620 602 ;
C -1 ; WX 698 ; N uni0E05 ; B 55 0 612 602 ;
C -1 ; WX 767 ; N uni0E06 ; B 16 -5 679 602 ;
C -1 ; WX 510 ; N uni0E07 ; B 18 -5 418 602 ;
C -1 ; WX 606 ; N uni0E08 ; B 15 -5 523 602 ;
C -1 ; WX 711 ; N uni0E09 ; B 25 -5 693 602 ;
C -1 ; WX 656 ; N uni0E0A ; B 17 0 609 670 ;
C -1 ; WX 694 ; N uni0E0B ; B 21 0 651 668 ;
C -1 ; WX 882 ; N uni0E0C ; B 46 -5 794 602 ;
C -1 ; WX 882 ; N uni0E0D ; B 49 -288 797 602 ;
C -1 ; WX 680 ; N uni0E0E ; B 41 -316 593 602 ;
C -1 ; WX 689 ; N uni0E0F ; B 31 -311 601 602 ;
C -1 ; WX 613 ; N uni0E10 ; B 1 -343 590 604 ;
C -1 ; WX 832 ; N uni0E11 ; B 23 0 746 602 ;
C -1 ; WX 924 ; N uni0E12 ; B 56 -5 833 602 ;
C -1 ; WX 958 ; N uni0E13 ; B 46 -5 943 602 ;
C -1 ; WX 702 ; N uni0E14 ; B 60 0 617 602 ;
C -1 ; WX 717 ; N uni0E15 ; B 63 0 635 602 ;
C -1 ; WX 663 ; N uni0E16 ; B 48 -5 583 602 ;
C -1 ; WX 721 ; N uni0E17 ; B 35 0 635 602 ;
C -1 ; WX 646 ; N uni0E18 ; B 74 0 598 602 ;
C -1 ; WX 741 ; N uni0E19 ; B 32 -5 715 602 ;
C -1 ; WX 718 ; N uni0E1A ; B 48 0 632 602 ;
C -1 ; WX 718 ; N uni0E1B ; B 48 0 632 884 ;
C -1 ; WX 674 ; N uni0E1C ; B 92 0 589 602 ;
C -1 ; WX 674 ; N uni0E1D ; B 92 0 589 884 ;
C -1 ; WX 752 ; N uni0E1E ; B 34 0 664 602 ;
C -1 ; WX 752 ; N uni0E1F ; B 34 0 664 884 ;
C -1 ; WX 680 ; N uni0E20 ; B 45 -5 596 602 ;
C -1 ; WX 718 ; N uni0E21 ; B 61 -5 633 602 ;
C -1 ; WX 657 ; N uni0E22 ; B 87 0 575 602 ;
C -1 ; WX 551 ; N uni0E23 ; B 38 -5 529 602 ;
C -1 ; WX 677 ; N uni0E24 ; B 51 -199 586 602 ;
C -1 ; WX 660 ; N uni0E25 ; B 52 -5 569 602 ;
C -1 ; WX 689 ; N uni0E26 ; B 51 -199 602 602 ;
C -1 ; WX 593 ; N uni0E27 ; B 23 -5 515 602 ;
C -1 ; WX 700 ; N uni0E28 ; B 65 0 692 656 ;
C -1 ; WX 748 ; N uni0E29 ; B 48 0 783 602 ;
C -1 ; WX 657 ; N uni0E2A ; B 52 -2 619 655 ;
C -1 ; WX 715 ; N uni0E2B ; B 31 0 630 602 ;
C -1 ; WX 754 ; N uni0E2C ; B 33 0 757 687 ;
C -1 ; WX 669 ; N uni0E2D ; B 66 0 580 602 ;
C -1 ; WX 656 ; N uni0E2E ; B 81 0 605 630 ;
C -1 ; WX 623 ; N uni0E2F ; B 97 -6 558 602 ;
C -1 ; WX 531 ; N uni0E30 ; B 55 14 471 587 ;
C -1 ; WX 0 ; N uni0E31 ; B -456 682 35 930 ;
C -1 ; WX 493 ; N uni0E32 ; B 14 0 432 602 ;
C -1 ; WX 493 ; N uni0E33 ; B -323 0 432 946 ;
C -1 ; WX 0 ; N uni0E34 ; B -572 638 -74 914 ;
C -1 ; WX 0 ; N uni0E35 ; B -570 621 -74 938 ;
C -1 ; WX 0 ; N uni0E36 ; B -572 635 -54 959 ;
C -1 ; WX 0 ; N uni0E37 ; B -584 632 -86 953 ;
C -1 ; WX 0 ; N uni0E38 ; B -282 -308 -87 -28 ;
C -1 ; WX 0 ; N uni0E39 ; B -460 -296 -81 -26 ;
C -1 ; WX 0 ; N uni0E3A ; B -244 -261 -70 -86 ;
C -1 ; WX 646 ; N uni0E3F ; B 83 -124 601 813 ;
C -1 ; WX 360 ; N uni0E40 ; B 92 -5 332 595 ;
C -1 ; WX 649 ; N uni0E41 ; B 87 -5 622 595 ;
C -1 ; WX 389 ; N uni0E42 ; B -40 -5 489 1063 ;
C -1 ; WX 452 ; N uni0E43 ; B -45 -5 427 1074 ;
C -1 ; WX 458 ; N uni0E44 ; B -49 -5 420 1076 ;
C -1 ; WX 308 ; N uni0E45 ; B -179 -199 239 602 ;
C -1 ; WX 675 ; N uni0E46 ; B 122 -236 602 602 ;
C -1 ; WX 0 ; N uni0E47 ; B -524 673 -25 1093 ;
C -1 ; WX 0 ; N uni0E48 ; B -201 992 -90 1194 ;
C -1 ; WX 0 ; N uni0E49 ; B -391 977 -2 1234 ;
C -1 ; WX 0 ; N uni0E4A ; B -407 988 75 1242 ;
C -1 ; WX 0 ; N uni0E4B ; B -303 984 12 1226 ;
C -1 ; WX 0 ; N uni0E4C ; B -219 883 83 1214 ;
C -1 ; WX 0 ; N uni0E4D ; B -323 696 -73 946 ;
C -1 ; WX 0 ; N uni0E4E ; B -317 717 41 1079 ;
C -1 ; WX 596 ; N uni0E4F ; B 42 -2 550 508 ;
C -1 ; WX 697 ; N uni0E50 ; B 74 -5 605 423 ;
C -1 ; WX 697 ; N uni0E51 ; B 101 -55 642 423 ;
C -1 ; WX 697 ; N uni0E52 ; B 5 0 665 612 ;
C -1 ; WX 697 ; N uni0E53 ; B 94 -5 651 423 ;
C -1 ; WX 697 ; N uni0E54 ; B 58 -6 679 595 ;
C -1 ; WX 697 ; N uni0E55 ; B 34 -5 685 601 ;
C -1 ; WX 697 ; N uni0E56 ; B 35 -5 671 617 ;
C -1 ; WX 697 ; N uni0E57 ; B -6 -5 739 627 ;
C -1 ; WX 697 ; N uni0E58 ; B 76 -5 704 624 ;
C -1 ; WX 697 ; N uni0E59 ; B 29 -5 721 627 ;
C -1 ; WX 797 ; N uni0E5A ; B 31 -5 724 602 ;
C -1 ; WX 1109 ; N uni0E5B ; B 18 38 1099 556 ;
C -1 ; WX 500 ; N enspace ; B 0 0 0 0 ;
C -1 ; WX 1000 ; N emspace ; B 0 0 0 0 ;
C -1 ; WX 0 ; N zerowidthspace ; B 0 0 0 0 ;
C -1 ; WX 0 ; N zerowidthnonjoiner ; B 0 0 0 0 ;
C -1 ; WX 0 ; N zerowidthjoiner ; B 0 0 0 0 ;
C -1 ; WX 0 ; N afii299 ; B 0 0 0 0 ;
C -1 ; WX 0 ; N afii300 ; B 0 0 0 0 ;
C -1 ; WX 455 ; N hyphen ; B 40 232 412 332 ;
C -1 ; WX 665 ; N endash ; B 48 245 609 345 ;
C -1 ; WX 1056 ; N emdash ; B 49 245 1007 345 ;
C -1 ; WX 295 ; N quoteleft ; B 58 450 213 723 ;
C -1 ; WX 280 ; N quoteright ; B 69 460 226 733 ;
C -1 ; WX 277 ; N quotesinglbase ; B 57 -159 205 136 ;
C -1 ; WX 487 ; N quotedblleft ; B 60 448 429 740 ;
C -1 ; WX 493 ; N quotedblright ; B 74 449 443 742 ;
C -1 ; WX 499 ; N quotedblbase ; B 67 -159 448 136 ;
C -1 ; WX 556 ; N dagger ; B 43 -172 508 708 ;
C -1 ; WX 556 ; N daggerdbl ; B 43 -172 508 708 ;
C -1 ; WX 531 ; N bullet ; B 113 100 450 437 ;
C -1 ; WX 637 ; N ellipsis ; B 49 0 605 133 ;
C -1 ; WX 999 ; N perthousand ; B 0 -29 999 730 ;
C -1 ; WX 332 ; N guilsinglleft ; B 37 34 299 480 ;
C -1 ; WX 332 ; N guilsinglright ; B 37 34 299 480 ;
C -1 ; WX 999 ; N trademark ; B 106 316 878 716 ;
C -1 ; WX 332 ; N minus ; B 32 228 302 328 ;
C -1 ; WX 277 ; N periodcentered ; B 72 281 208 417 ;
C -1 ; WX 718 ; N dottedcircle ; B 49 -14 656 598 ;
C -1 ; WX 613 ; N uni0E10.descless ; B 66 -5 590 604 ;
C -1 ; WX 0 ; N uni0E34.left ; B -738 638 -240 914 ;
C -1 ; WX 0 ; N uni0E35.left ; B -736 621 -240 938 ;
C -1 ; WX 0 ; N uni0E36.left ; B -738 635 -220 959 ;
C -1 ; WX 0 ; N uni0E37.left ; B -750 632 -252 953 ;
C -1 ; WX 0 ; N uni0E48.low_left ; B -368 684 -250 938 ;
C -1 ; WX 0 ; N uni0E49.low_left ; B -624 678 -155 1004 ;
C -1 ; WX 0 ; N uni0E4A.low_left ; B -649 677 -82 975 ;
C -1 ; WX 0 ; N uni0E4B.low_left ; B -613 682 -216 1033 ;
C -1 ; WX 0 ; N uni0E4C.low_left ; B -472 668 -115 1056 ;
C -1 ; WX 0 ; N uni0E48.low ; B -202 684 -84 938 ;
C -1 ; WX 0 ; N uni0E49.low ; B -458 678 11 1004 ;
C -1 ; WX 0 ; N uni0E4A.low ; B -483 677 84 975 ;
C -1 ; WX 0 ; N uni0E4B.low ; B -343 682 54 1033 ;
C -1 ; WX 0 ; N uni0E4C.low ; B -306 668 51 1056 ;
C -1 ; WX 882 ; N uni0E0D.descless ; B 49 -5 797 602 ;
C -1 ; WX 0 ; N uni0E31.left ; B -622 682 -131 930 ;
C -1 ; WX 0 ; N uni0E4D.left ; B -489 696 -239 946 ;
C -1 ; WX 0 ; N uni0E47.left ; B -690 673 -191 1093 ;
C -1 ; WX 0 ; N uni0E48.left ; B -369 992 -258 1194 ;
C -1 ; WX 0 ; N uni0E49.left ; B -449 977 -60 1234 ;
C -1 ; WX 0 ; N uni0E4A.left ; B -497 988 -15 1242 ;
C -1 ; WX 0 ; N uni0E4B.left ; B -471 984 -156 1226 ;
C -1 ; WX 0 ; N uni0E4C.left ; B -413 883 -111 1214 ;
C -1 ; WX 0 ; N uni0E38.low ; B -282 -591 -87 -311 ;
C -1 ; WX 0 ; N uni0E39.low ; B -460 -579 -81 -309 ;
C -1 ; WX 0 ; N uni0E3A.low ; B -244 -544 -70 -369 ;
C -1 ; WX 0 ; N DEL ; B -460 0 0 766 ;
C -1 ; WX 338 ; N uniF71C ; B 0 0 2 2 ;
C -1 ; WX 338 ; N uniF71D ; B 29 -162 312 -3 ;
C -1 ; WX 0 ; N uni0E4D.high ; B -323 995 -73 1245 ;
C -1 ; WX 0 ; N uni0E47.high ; B -452 997 -110 1285 ;
C -1 ; WX 588 ; N ff ; B 28 0 588 714 ;
C -1 ; WX 548 ; N fi ; B 28 0 473 714 ;
C -1 ; WX 548 ; N fl ; B 28 0 473 714 ;
C -1 ; WX 842 ; N ffi ; B 28 0 767 714 ;
C -1 ; WX 842 ; N ffl ; B 28 0 767 714 ;
C -1 ; WX 766 ; N .notdef ; B 95 0 671 1337 ;
EndCharMetrics
EndFontMetrics
