StartFontMetrics 2.0
Comment Generated by pfaedit
Comment Creation Date: Sat May  7 01:59:38 2005
FontName CMTypewriter-RegularSC
FullName Computer Modern Typewriter Regular Small Caps
FamilyName CM Typewriter
Weight Regular
Notice (Converted by Alexej Kryukov from METAFONT sources. )
Comment 
Comment This font is subject to the GNU General Public License as published by the Free Software Foundation; either version 2 of the License, or (at your option) any later version.
Comment 
Comment This font is distributed in the hope that it will be useful, but WITHOUT ANY WARRANTY; without even the implied warranty of MERCHANTABILITY or FITNESS FOR A PARTICULAR PURPOSE.  See the GNU General Pu
Comment blic License for more details.
ItalicAngle 0
IsFixedPitch false
UnderlinePosition -100
UnderlineThickness 50
Version 001.001
EncodingScheme FontSpecific
FontBBox -76 -233 974 828
CapHeight 612
XHeight 473
Ascender 473
StartCharMetrics 239
C 0 ; WX 525 ; N .notdef ; B 0 0 0 0 ;
C 32 ; WX 525 ; N space ; B 0 0 0 0 ;
C 33 ; WX 525 ; N exclam ; B 200 1 325 624 ;
C 34 ; WX 525 ; N quotedbl ; B 129 328 396 623 ;
C 35 ; WX 525 ; N numbersign ; B 35 0 489 613 ;
C 36 ; WX 525 ; N dollar ; B 57 -82 467 696 ;
C 37 ; WX 525 ; N percent ; B 35 -83 489 696 ;
C 38 ; WX 525 ; N ampersand ; B 27 -10 491 624 ;
C 39 ; WX 525 ; N quoteright ; B 180 277 355 612 ;
C 40 ; WX 525 ; N parenleft ; B 173 -84 437 696 ;
C 41 ; WX 525 ; N parenright ; B 87 -83 350 695 ;
C 42 ; WX 525 ; N asterisk ; B 68 92 456 522 ;
C 43 ; WX 525 ; N plus ; B 36 81 487 531 ;
C 44 ; WX 525 ; N comma ; B 180 -138 347 126 ;
C 45 ; WX 525 ; N hyphen ; B 86 185 438 248 ;
C 46 ; WX 525 ; N period ; B 200 1 325 126 ;
C 47 ; WX 525 ; N slash ; B 58 -83 466 695 ;
C 48 ; WX 525 ; N zero ; B 48 -11 476 443 ;
C 49 ; WX 525 ; N one ; B 105 0 444 440 ;
C 50 ; WX 525 ; N two ; B 46 1 473 443 ;
C 51 ; WX 525 ; N three ; B 43 -233 480 443 ;
C 52 ; WX 525 ; N four ; B 29 -222 496 443 ;
C 53 ; WX 525 ; N five ; B 51 -232 472 432 ;
C 54 ; WX 525 ; N six ; B 52 -10 474 624 ;
C 55 ; WX 525 ; N seven ; B 44 -233 481 447 ;
C 56 ; WX 525 ; N eight ; B 43 -10 480 624 ;
C 57 ; WX 525 ; N nine ; B 52 -233 472 443 ;
C 58 ; WX 525 ; N colon ; B 200 1 325 431 ;
C 59 ; WX 525 ; N semicolon ; B 180 -138 347 431 ;
C 60 ; WX 525 ; N less ; B 56 60 469 552 ;
C 61 ; WX 525 ; N equal ; B 37 199 487 413 ;
C 62 ; WX 525 ; N greater ; B 55 59 468 553 ;
C 63 ; WX 525 ; N question ; B 60 1 462 618 ;
C 64 ; WX 525 ; N at ; B 43 -5 481 618 ;
C 65 ; WX 525 ; N A ; B 26 0 498 625 ;
C 66 ; WX 525 ; N B ; B 22 0 483 613 ;
C 67 ; WX 525 ; N C ; B 39 -11 485 624 ;
C 68 ; WX 525 ; N D ; B 17 0 486 613 ;
C 69 ; WX 525 ; N E ; B 25 0 503 613 ;
C 70 ; WX 525 ; N F ; B 27 0 491 613 ;
C 71 ; WX 525 ; N G ; B 37 -11 497 624 ;
C 72 ; WX 525 ; N H ; B 20 0 504 613 ;
C 73 ; WX 525 ; N I ; B 78 0 446 613 ;
C 74 ; WX 525 ; N J ; B 71 -10 480 613 ;
C 75 ; WX 525 ; N K ; B 24 0 495 613 ;
C 76 ; WX 525 ; N L ; B 30 0 489 613 ;
C 77 ; WX 525 ; N M ; B 16 0 508 613 ;
C 78 ; WX 525 ; N N ; B 27 0 497 613 ;
C 79 ; WX 525 ; N O ; B 56 -10 468 623 ;
C 80 ; WX 525 ; N P ; B 24 1 480 613 ;
C 81 ; WX 525 ; N Q ; B 56 -139 468 624 ;
C 82 ; WX 525 ; N R ; B 20 -10 522 613 ;
C 83 ; WX 525 ; N S ; B 51 -11 472 624 ;
C 84 ; WX 525 ; N T ; B 25 0 499 613 ; L M trademark ;
C 85 ; WX 525 ; N U ; B 2 -11 521 612 ;
C 86 ; WX 525 ; N V ; B 17 -7 507 613 ;
C 87 ; WX 525 ; N W ; B 10 -7 514 613 ;
C 88 ; WX 525 ; N X ; B 26 0 497 613 ;
C 89 ; WX 525 ; N Y ; B 18 0 506 613 ;
C 90 ; WX 525 ; N Z ; B 47 0 482 613 ;
C 91 ; WX 525 ; N bracketleft ; B 220 -83 484 696 ;
C 92 ; WX 525 ; N backslash ; B 57 -82 466 695 ;
C 93 ; WX 525 ; N bracketright ; B 40 -83 304 696 ;
C 94 ; WX 525 ; N asciicircum ; B 77 422 448 566 ;
C 95 ; WX 525 ; N underscore ; B 56 -95 468 -23 ;
C 96 ; WX 525 ; N quoteleft ; B 170 348 345 683 ;
C 97 ; WX 525 ; N a ; B 38 0 485 483 ;
C 98 ; WX 525 ; N b ; B 44 0 474 474 ;
C 99 ; WX 525 ; N c ; B 46 -8 477 482 ;
C 100 ; WX 525 ; N d ; B 39 0 478 474 ;
C 101 ; WX 525 ; N e ; B 47 0 495 474 ;
C 102 ; WX 525 ; N f ; B 50 0 483 474 ; L l fl ; L i fi ;
C 103 ; WX 525 ; N g ; B 42 -8 489 482 ;
C 104 ; WX 525 ; N h ; B 42 0 481 474 ;
C 105 ; WX 525 ; N i ; B 116 0 408 474 ;
C 106 ; WX 525 ; N j ; B 79 -8 454 474 ;
C 107 ; WX 525 ; N k ; B 45 0 487 474 ;
C 108 ; WX 525 ; N l ; B 53 0 481 474 ;
C 109 ; WX 525 ; N m ; B 34 0 489 474 ;
C 110 ; WX 525 ; N n ; B 46 0 477 474 ;
C 111 ; WX 525 ; N o ; B 62 -8 461 481 ;
C 112 ; WX 525 ; N p ; B 47 0 474 474 ;
C 113 ; WX 525 ; N q ; B 62 -106 461 482 ;
C 114 ; WX 525 ; N r ; B 41 -8 514 474 ;
C 115 ; WX 525 ; N s ; B 58 -8 465 482 ;
C 116 ; WX 525 ; N t ; B 33 0 491 473 ;
C 117 ; WX 525 ; N u ; B 26 -7 497 474 ;
C 118 ; WX 525 ; N v ; B 29 -6 494 474 ;
C 119 ; WX 525 ; N w ; B 20 -5 503 474 ;
C 120 ; WX 525 ; N x ; B 42 0 480 474 ;
C 121 ; WX 525 ; N y ; B 34 0 489 474 ;
C 122 ; WX 525 ; N z ; B 53 0 475 473 ;
C 123 ; WX 525 ; N braceleft ; B 56 -83 468 695 ;
C 124 ; WX 525 ; N bar ; B 226 -83 298 695 ;
C 125 ; WX 525 ; N braceright ; B 56 -82 468 696 ;
C 126 ; WX 525 ; N asciitilde ; B 71 491 453 613 ;
C 161 ; WX 525 ; N exclamdown ; B 199 -232 325 390 ;
C 162 ; WX 525 ; N cent ; B 43 -110 495 545 ;
C 163 ; WX 525 ; N sterling ; B 46 -6 501 620 ;
C 164 ; WX 525 ; N fraction ; B 58 -83 467 695 ;
C 165 ; WX 525 ; N yen ; B 19 0 505 613 ;
C 166 ; WX 525 ; N florin ; B 41 0 437 619 ;
C 167 ; WX 525 ; N section ; B 81 -228 443 619 ;
C 168 ; WX 525 ; N currency ; B -54 -38 578 594 ;
C 169 ; WX 525 ; N quotesingle ; B 217 329 307 623 ;
C 170 ; WX 525 ; N quotedblleft ; B 10 348 502 612 ;
C 171 ; WX 525 ; N guillemotleft ; B 44 0 445 442 ;
C 172 ; WX 525 ; N guilsinglleft ; B 64 0 394 442 ;
C 173 ; WX 525 ; N guilsinglright ; B 131 0 459 441 ;
C 174 ; WX 525 ; N fi ; B 29 0 501 474 ;
C 175 ; WX 525 ; N fl ; B 25 0 498 474 ;
C 177 ; WX 525 ; N endash ; B 86 185 438 248 ;
C 178 ; WX 525 ; N dagger ; B 65 -233 459 618 ;
C 179 ; WX 525 ; N daggerdbl ; B 65 -227 459 618 ;
C 180 ; WX 525 ; N periodcentered ; B 212 170 312 270 ;
C 182 ; WX 525 ; N paragraph ; B 47 -222 500 613 ;
C 183 ; WX 525 ; N bullet ; B 58 100 466 511 ;
C 184 ; WX 525 ; N quotesinglbase ; B 180 -138 347 126 ;
C 185 ; WX 525 ; N quotedblbase ; B 22 -138 514 126 ;
C 186 ; WX 525 ; N quotedblright ; B 22 348 514 612 ;
C 187 ; WX 525 ; N guillemotright ; B 78 1 481 442 ;
C 188 ; WX 525 ; N ellipsis ; B 25 1 500 126 ;
C 189 ; WX 525 ; N perthousand ; B 25 -83 499 695 ;
C 191 ; WX 525 ; N questiondown ; B 61 -228 463 390 ;
C 193 ; WX 525 ; N grave ; B 118 588 335 713 ;
C 194 ; WX 525 ; N acute ; B 188 588 406 713 ;
C 195 ; WX 525 ; N circumflex ; B 97 559 426 728 ;
C 196 ; WX 525 ; N tilde ; B 58 593 466 725 ;
C 197 ; WX 525 ; N macron ; B 72 598 452 663 ;
C 198 ; WX 525 ; N breve ; B 86 582 439 697 ;
C 199 ; WX 525 ; N dotaccent ; B 240 604 333 696 ;
C 200 ; WX 525 ; N dieresis ; B 113 631 410 723 ;
C 202 ; WX 525 ; N ring ; B 145 492 378 729 ;
C 203 ; WX 525 ; N cedilla ; B 139 -203 384 1 ;
C 205 ; WX 525 ; N hungarumlaut ; B 76 588 519 713 ;
C 206 ; WX 525 ; N ogonek ; B 180 -188 423 60 ;
C 207 ; WX 525 ; N caron ; B 116 485 407 595 ;
C 208 ; WX 525 ; N emdash ; B 86 185 438 248 ;
C 225 ; WX 525 ; N AE ; B 22 0 500 613 ;
C 227 ; WX 525 ; N ordfeminine ; B 35 216 508 705 ;
C 232 ; WX 525 ; N Lslash ; B 30 0 489 613 ;
C 233 ; WX 525 ; N Oslash ; B 56 -84 468 697 ;
C 234 ; WX 525 ; N OE ; B 28 -11 503 624 ;
C 235 ; WX 525 ; N ordmasculine ; B 35 216 490 705 ;
C 241 ; WX 525 ; N ae ; B 32 0 492 474 ;
C 245 ; WX 525 ; N dotlessi ; B 116 0 408 474 ;
C 248 ; WX 525 ; N lslash ; B 53 0 481 474 ;
C 249 ; WX 525 ; N oslash ; B 61 -85 462 559 ;
C 250 ; WX 525 ; N oe ; B 36 -8 495 482 ;
C 251 ; WX 1050 ; N germandbls ; B 58 -8 974 482 ;
C -1 ; WX 525 ; N minus ; B 37 275 487 338 ;
C -1 ; WX 525 ; N Eng ; B 15 -11 488 630 ;
C -1 ; WX 525 ; N eng ; B 36 -7 479 489 ;
C -1 ; WX 525 ; N dotlessj ; B 79 -8 454 474 ;
C -1 ; WX 525 ; N ff ; B 24 0 499 474 ;
C -1 ; WX 525 ; N ffi ; B 20 0 521 474 ;
C -1 ; WX 525 ; N ffl ; B 19 0 505 474 ;
C -1 ; WX 525 ; N perthousandzero ; B 175 -83 349 185 ;
C -1 ; WX 525 ; N Euro ; B 0 0 497 617 ;
C -1 ; WX 525 ; N Scaron ; B 51 -11 472 807 ;
C -1 ; WX 525 ; N Zcaron ; B 47 0 482 807 ;
C -1 ; WX 525 ; N trademark ; B 0 337 516 706 ;
C -1 ; WX 525 ; N scaron ; B 58 -8 465 575 ;
C -1 ; WX 525 ; N zcaron ; B 53 0 475 575 ;
C -1 ; WX 525 ; N Ydieresis ; B 18 0 506 820 ;
C -1 ; WX 525 ; N nonbreakingspace ; B 0 0 0 0 ;
C -1 ; WX 525 ; N brokenbar ; B 226 -83 298 695 ;
C -1 ; WX 525 ; N copyright ; B -76 -233 600 707 ;
C -1 ; WX 525 ; N logicalnot ; B 44 38 481 362 ;
C -1 ; WX 525 ; N softhyphen ; B 86 185 438 248 ;
C -1 ; WX 525 ; N registered ; B -76 -233 600 707 ;
C -1 ; WX 525 ; N degree ; B 112 311 413 613 ;
C -1 ; WX 525 ; N plusminus ; B 37 136 487 587 ;
C -1 ; WX 525 ; N twosuperior ; B 59 306 466 706 ;
C -1 ; WX 525 ; N threesuperior ; B 48 301 475 707 ;
C -1 ; WX 525 ; N mu ; B 10 -221 514 432 ;
C -1 ; WX 525 ; N onesuperior ; B 88 304 443 707 ;
C -1 ; WX 525 ; N onequarter ; B -2 -222 526 706 ;
C -1 ; WX 525 ; N onehalf ; B -2 -221 526 706 ;
C -1 ; WX 525 ; N threequarters ; B -2 -222 526 706 ;
C -1 ; WX 525 ; N Agrave ; B 26 0 498 809 ;
C -1 ; WX 525 ; N Aacute ; B 26 0 498 809 ;
C -1 ; WX 525 ; N Acircumflex ; B 26 0 498 827 ;
C -1 ; WX 525 ; N Atilde ; B 26 0 498 821 ;
C -1 ; WX 525 ; N Adieresis ; B 26 0 498 821 ;
C -1 ; WX 525 ; N Aring ; B 26 0 498 828 ;
C -1 ; WX 525 ; N Ccedilla ; B 40 -207 485 624 ;
C -1 ; WX 525 ; N Egrave ; B 25 0 503 809 ;
C -1 ; WX 525 ; N Eacute ; B 25 0 503 809 ;
C -1 ; WX 525 ; N Ecircumflex ; B 25 0 503 827 ;
C -1 ; WX 525 ; N Edieresis ; B 25 0 503 820 ;
C -1 ; WX 525 ; N Igrave ; B 78 0 446 809 ;
C -1 ; WX 525 ; N Iacute ; B 78 0 446 809 ;
C -1 ; WX 525 ; N Icircumflex ; B 78 0 446 827 ;
C -1 ; WX 525 ; N Idieresis ; B 78 0 446 821 ;
C -1 ; WX 525 ; N Eth ; B 17 0 486 613 ;
C -1 ; WX 525 ; N Ntilde ; B 27 0 497 821 ;
C -1 ; WX 525 ; N Ograve ; B 54 -10 469 809 ;
C -1 ; WX 525 ; N Oacute ; B 54 -10 469 809 ;
C -1 ; WX 525 ; N Ocircumflex ; B 56 -10 468 827 ;
C -1 ; WX 525 ; N Otilde ; B 56 -10 468 821 ;
C -1 ; WX 525 ; N Odieresis ; B 56 -10 468 820 ;
C -1 ; WX 525 ; N multiply ; B 92 136 432 475 ;
C -1 ; WX 525 ; N Ugrave ; B 2 -11 521 809 ;
C -1 ; WX 525 ; N Uacute ; B 2 -11 521 809 ;
C -1 ; WX 525 ; N Ucircumflex ; B 2 -11 521 827 ;
C -1 ; WX 525 ; N Udieresis ; B 2 -11 521 820 ;
C -1 ; WX 525 ; N Yacute ; B 18 0 506 809 ;
C -1 ; WX 525 ; N Thorn ; B 30 1 476 612 ;
C -1 ; WX 525 ; N agrave ; B 38 0 485 671 ;
C -1 ; WX 525 ; N aacute ; B 38 0 485 671 ;
C -1 ; WX 525 ; N acircumflex ; B 38 0 485 685 ;
C -1 ; WX 525 ; N atilde ; B 38 0 485 682 ;
C -1 ; WX 525 ; N adieresis ; B 38 0 485 681 ;
C -1 ; WX 525 ; N aring ; B 38 0 485 688 ;
C -1 ; WX 525 ; N ccedilla ; B 46 -203 477 482 ;
C -1 ; WX 525 ; N egrave ; B 47 0 495 671 ;
C -1 ; WX 525 ; N eacute ; B 47 0 495 671 ;
C -1 ; WX 525 ; N ecircumflex ; B 47 0 495 685 ;
C -1 ; WX 525 ; N edieresis ; B 47 0 495 681 ;
C -1 ; WX 525 ; N igrave ; B 116 0 408 671 ;
C -1 ; WX 525 ; N iacute ; B 116 0 408 671 ;
C -1 ; WX 525 ; N icircumflex ; B 99 0 427 685 ;
C -1 ; WX 525 ; N idieresis ; B 113 0 410 681 ;
C -1 ; WX 525 ; N eth ; B 39 0 478 474 ;
C -1 ; WX 525 ; N ntilde ; B 46 0 477 682 ;
C -1 ; WX 525 ; N ograve ; B 61 -8 462 671 ;
C -1 ; WX 525 ; N oacute ; B 61 -8 462 671 ;
C -1 ; WX 525 ; N ocircumflex ; B 62 -8 461 685 ;
C -1 ; WX 525 ; N otilde ; B 58 -8 466 682 ;
C -1 ; WX 525 ; N odieresis ; B 62 -8 461 681 ;
C -1 ; WX 525 ; N divide ; B 37 77 487 535 ;
C -1 ; WX 525 ; N ugrave ; B 26 -7 497 671 ;
C -1 ; WX 525 ; N uacute ; B 26 -7 497 671 ;
C -1 ; WX 525 ; N ucircumflex ; B 26 -7 497 685 ;
C -1 ; WX 525 ; N udieresis ; B 26 -7 497 681 ;
C -1 ; WX 525 ; N yacute ; B 34 0 489 671 ;
C -1 ; WX 525 ; N thorn ; B 54 0 470 474 ;
C -1 ; WX 525 ; N ydieresis ; B 34 0 489 681 ;
EndCharMetrics
EndFontMetrics
