%!PS-Adobe-3.0 EPSF-3.0
%%BoundingBox: 2 -1 11 83 
%%HiResBoundingBox: 2.09062 -0.05 10.4211 82.34691 
%%Creator: MetaPost 1.504
%%CreationDate: 2011.07.24:0826
%%Pages: 1
%%BeginProlog
%%EndProlog
%%Page: 1 1
 0 0 0 setrgbcolor
newpath 10.3711 82.2969 moveto
2.14063 82.2969 10.3711 41.14839 2.14063 41.14839 curveto
10.3711 41.14839 2.14063 0 10.3711 0 curveto
2.14063 0 16.043 41.14839 2.14063 41.14839 curveto
16.043 41.14839 2.14063 82.2969 10.3711 82.2969 curveto
 closepath fill
 0 0.1 dtransform truncate idtransform setlinewidth pop [] 0 setdash 0 setlinecap 1 setlinejoin
 10 setmiterlimit
newpath 10.3711 82.2969 moveto
2.14063 82.2969 10.3711 41.14839 2.14063 41.14839 curveto
10.3711 41.14839 2.14063 0 10.3711 0 curveto
2.14063 0 16.043 41.14839 2.14063 41.14839 curveto
16.043 41.14839 2.14063 82.2969 10.3711 82.2969 curveto stroke
showpage
%%EOF
