\relax 
\providecommand*{\memsetcounter}[2]{}
\bibstyle{biblatex}
\bibdata{trial2-psfrag-pstool-blx,xampl}
\citation{biblatex-control}
%<*PSTOOLLABELS>
\citation{incollection-full}
%</PSTOOLLABELS>
\memsetcounter{lastsheet}{1}
\memsetcounter{lastpage}{3}
