%!PS-Adobe-2.0 EPSF-2.0
%%Creator: GhostScript rev. 351
%%BoundingBox: 0 0 11.28 11.28
%%EndComments
%%BeginProlog
/GSexport 100 dict def GSexport begin
/h {closepath} def
/m {moveto} def
/c {curveto} def
/l {lineto} def
/k {setcmykcolor} def
/K {setcmykcolor} def
/*u {/oper_kind -1 def} def
/*U {*U*f *U*d *U*c} def
/f {/oper_kind 0 def} def
/*U*f {0 oper_kind eq {eofill} if} def
/s {closepath /oper_kind 1 def} def
/S {/oper_kind 1 def} def
/*U*d {1 oper_kind eq {stroke} if} def
/W {} def
/n {/oper_kind 2 def} def
/*U*c {2 oper_kind eq {eoclip newpath} if} def
/w {setlinewidth} def
/j {setlinejoin} def
/J {setlinecap} def
/M {setmiterlimit} def
/d {setdash} def
/setcmykcolor where {pop}
 {/setcmykcolor {1 sub /mf exch def
 3 {mf add neg dup 0 lt {pop 0} if 3 1 roll} repeat
 setrgbcolor} def} ifelse
/q {gsave} def
/Q {grestore} def
%%EndProlog
%%BeginSetup
%%EndSetup
q
*u
0.40 w 0 j 0 J 10.0 M
0 0 0 1.0 K
11.28 5.64 m
11.28 7.14 10.69 8.57 9.63 9.63 c
8.57 10.69 7.14 11.28 5.64 11.28 c
4.14 11.28 2.71 10.69 1.65 9.63 c
0.59 8.57 0 7.14 0 5.64 c
0 4.14 0.59 2.71 1.65 1.65 c
2.71 0.59 4.14 0 5.64 0 c
7.14 0 8.57 0.59 9.63 1.65 c
10.69 2.71 11.28 4.14 11.28 5.64 c
s
*U
Q
%%Trailer
end
showpage
