%!PS-Adobe-2.0 EPSF-2.0
%%Creator: GhostScript rev. 351
%%BoundingBox: -0.43 -0.14 55.73 56.02
%%EndComments
%%BeginProlog
/GSexport 100 dict def GSexport begin
/h {closepath} def
/m {moveto} def
/c {curveto} def
/l {lineto} def
/k {setcmykcolor} def
/K {setcmykcolor} def
/*u {/oper_kind -1 def} def
/*U {*U*f *U*d *U*c} def
/f {/oper_kind 0 def} def
/*U*f {0 oper_kind eq {eofill} if} def
/s {closepath /oper_kind 1 def} def
/S {/oper_kind 1 def} def
/*U*d {1 oper_kind eq {stroke} if} def
/W {} def
/n {/oper_kind 2 def} def
/*U*c {2 oper_kind eq {eoclip newpath} if} def
/w {setlinewidth} def
/j {setlinejoin} def
/J {setlinecap} def
/M {setmiterlimit} def
/d {setdash} def
/setcmykcolor where {pop}
 {/setcmykcolor {1 sub /mf exch def
 3 {mf add neg dup 0 lt {pop 0} if 3 1 roll} repeat
 setrgbcolor} def} ifelse
/q {gsave} def
/Q {grestore} def
%%EndProlog
%%BeginSetup
%%EndSetup
*u
0 0 0 1.0 k
26.93 33.34 m
29.09 33.34 l
29.09 56.02 l
26.93 56.02 l
26.93 33.34 l
f
*U
*u
0 0 0 1.0 k
-0.43 27.22 m
55.73 27.22 l
55.73 29.38 l
-0.43 29.38 l
-0.43 27.22 l
f
*U
*u
0.36 w 0 j 0 J 4.13 M
0 0 0 1.0 K
55.73 27.94 m
55.73 35.5 52.49 42.7 47.45 47.74 c
42.05 53.14 34.85 56.02 27.65 56.02 c
20.09 56.02 12.89 53.14 7.85 47.74 c
2.45 42.7 -0.43 35.5 -0.43 27.94 c
-0.43 20.74 2.45 13.54 7.85 8.14 c
12.89 3.10 20.09 -0.14 27.65 -0.14 c
34.85 -0.14 42.05 3.10 47.45 8.14 c
52.49 13.54 55.73 20.74 55.73 27.94 c
s
*U
*u
0 0 0 1.0 k
26.93 -0.14 m
29.09 -0.14 l
29.09 27.22 l
26.93 27.22 l
26.93 -0.14 l
f
*U
%%Trailer
end
showpage
