[
]
[
]
[
]
[
]
[
]
[
]
[
]
[
]
[
]
[
]
[
]
[
]
[
]
[
]
[
]
[
]
[
]
[
]
[
]
[
]
[
]
[
]
[
]
[
]
[
]
[
]
[
]
[
]
[
]
[
]
[
]
[
]
[
]
[
]
[
]
[
]
[
]
[
]
[
]
[
]
[
]
[
]
[
]
[
]
[
]
[
]
[
]
[
]
[
]
[
]
[
]
[
]
[
]
[
]
[
]
[
]
[
]
[
]
[
]
[
]
[
]
[
]
[
]
[
]
[
]
[
]
[
]
[
]
[
]
[
]
[
]
[
]
[
]
[
]
[
]
[
]
[
]
[
]
[
]
[
]
[
]
[
]
[
]
[
]
[
]
[
]
[
]
[
]
[
]
[
]
[
]
[
]
[
]
[
]
[
]
[
]
[
]
[
]
[
]
[
]
[
]
[
]
[
]
[
]
[
]
[
]
[
]
[
]
[
]
[
]
[
]
[
]
[
]
[
]
[
]
[
]
[
]
[
]
[
]
[
]
[
]
[
]
[
]
[
]
[
]
[
]
[
]
[
]
[
]
[
]
[
]
[
-1.57454 0.919992
-1.57454 1.09572
]
[
-1.56752 0.856729
-1.56752 1.15195
]
[
-1.56049 0.814554
-1.56049 1.19413
]
[
-1.55346 0.779408
-1.55346 1.22225
]
[
-1.54643 0.744262
-1.54643 1.25036
]
[
-1.5394 0.716146
-1.5394 1.27848
]
[
-1.53237 0.695058
-1.53237 1.29957
]
[
-1.52534 0.666941
-1.52534 1.32065
]
[
-1.51831 0.645854
-1.51831 1.33471
]
[
-1.51128 0.624766
-1.51128 1.3558
]
[
-1.50425 0.603679
-1.50425 1.36986
]
[
-1.49722 0.582591
-1.49722 1.38392
]
[
-1.49019 0.561504
-1.49019 1.39798
]
[
-1.48316 0.547446
-1.48316 1.41203
]
[
-1.47614 0.526358
-1.47614 1.42609
]
[
-1.46911 0.5123
-1.46911 1.44015
]
[
-1.46208 0.498241
-1.46208 1.44718
]
[
-1.45505 0.477154
-1.45505 1.46124
]
[
-1.44802 0.463095
-1.44802 1.46827
]
[
-1.44099 0.449037
-1.44099 1.48233
]
[
-1.43396 0.434979
-1.43396 1.48935
]
[
-1.42693 0.42092
-1.42693 1.50341
]
[
-1.4199 0.406862
-1.4199 1.51044
]
[
-1.41287 0.392803
-1.41287 1.51747
]
[
-1.40584 0.378745
-1.40584 1.53153
]
[
-1.39881 0.364687
-1.39881 1.53856
]
[
-1.39178 0.350628
-1.39178 1.54559
]
[
-1.38476 0.33657
-1.38476 1.55262
]
[
-1.37773 0.329541
-1.37773 1.55965
]
[
-1.3707 0.315482
-1.3707 1.56668
]
[
-1.36367 0.301424
-1.36367 1.5737
]
[
-1.35664 0.287365
-1.35664 1.58073
]
[
-1.34961 0.280336
-1.34961 1.58776
]
[
-1.34258 0.266278
-1.34258 1.59479
]
[
-1.33555 0.252219
-1.33555 1.60182
]
[
-1.32852 0.24519
-1.32852 1.60885
]
[
-1.32149 0.231132
-1.32149 1.61588
]
[
-1.31446 0.224103
-1.31446 1.62291
]
[
-1.30743 0.210044
-1.30743 1.62994
]
[
-1.3004 0.203015
-1.3004 1.63697
]
[
-1.29338 0.188957
-1.29338 1.63697
]
[
-1.28635 0.181927
-1.28635 1.644
]
[
-1.27932 0.167869
-1.27932 1.65103
]
[
-1.27229 0.16084
-1.27229 1.65805
]
[
-1.26526 0.146781
-1.26526 1.65805
]
[
-1.25823 0.139752
-1.25823 1.66508
]
[
-1.2512 0.125694
-1.2512 1.67211
]
[
-1.24417 0.118665
-1.24417 1.67914
]
[
-1.23714 0.111635
-1.23714 1.67914
]
[
-1.23011 0.0975769
-1.23011 1.68617
]
[
-1.22308 0.0905477
-1.22308 1.68617
]
[
-1.21605 0.0835185
-1.21605 1.6932
]
[
-1.20902 0.0694601
-1.20902 1.70023
]
[
-1.202 0.0624309
-1.202 1.70023
]
[
-1.19497 0.0554017
-1.19497 1.70726
]
[
-1.18794 0.0413433
-1.18794 1.70726
]
[
-1.18091 0.0343141
-1.18091 1.71429
]
[
-1.17388 0.0272849
-1.17388 1.71429
]
[
-1.16685 0.0202557
-1.16685 1.72132
]
[
-1.15982 0.0061973
-1.15982 1.72132
]
[
-1.15279 -0.000831896
-1.15279 1.72835
]
[
-1.14576 -0.0078611
-1.14576 1.72835
]
[
-1.13873 -0.0148903
-1.13873 1.73538
]
[
-1.1317 -0.0289487
-1.1317 1.73538
]
[
-1.12467 -0.0359779
-1.12467 1.7424
]
[
-1.11764 -0.0430071
-1.11764 1.7424
]
[
-1.11062 -0.0500363
-1.11062 1.74943
]
[
-1.10359 -0.0570655
-1.10359 1.74943
]
[
-1.09656 -0.0711239
-1.09656 1.74943
]
[
-1.08953 -0.0781531
-1.08953 1.75646
]
[
-1.0825 -0.0851823
-1.0825 1.75646
]
[
-1.07547 -0.0922115
-1.07547 1.76349
]
[
-1.06844 -0.0992407
-1.06844 1.76349
]
[
-1.06141 -0.10627
-1.06141 1.76349
]
[
-1.05438 -0.113299
-1.05438 1.77052
]
[
-1.04735 -0.120328
-1.04735 1.77052
]
[
-1.04032 -0.134387
-1.04032 1.77052
]
[
-1.03329 -0.141416
-1.03329 1.77755
]
[
-1.02626 -0.148445
-1.02626 1.77755
]
[
-1.01924 -0.155474
-1.01924 1.77755
]
[
-1.01221 -0.162504
-1.01221 1.77755
]
[
-1.00518 -0.169533
-1.00518 1.78458
]
[
-0.998147 -0.176562
-0.998147 1.78458
]
[
-0.991118 -0.183591
-0.991118 1.78458
]
[
-0.984089 -0.19062
-0.984089 1.78458
]
[
-0.97706 -0.19765
-0.97706 1.79161
]
[
-0.970031 -0.204679
-0.970031 1.79161
]
[
-0.963001 -0.211708
-0.963001 1.79161
]
[
-0.955972 -0.218737
-0.955972 1.79161
]
[
-0.948943 -0.225766
-0.948943 1.79864
]
[
-0.941914 -0.232796
-0.941914 1.79864
]
[
-0.934885 -0.239825
-0.934885 1.79864
]
[
-0.927856 -0.246854
-0.927856 1.79864
]
[
-0.920826 -0.253883
-0.920826 1.79864
]
[
-0.913797 -0.260912
-0.913797 1.79864
]
[
-0.906768 -0.267942
-0.906768 1.80567
]
[
-0.899739 -0.274971
-0.899739 1.80567
]
[
-0.89271 -0.282
-0.89271 1.80567
]
[
-0.88568 -0.289029
-0.88568 1.80567
]
[
-0.878651 -0.296058
-0.878651 1.80567
]
[
-0.871622 -0.303088
-0.871622 1.80567
]
[
-0.864593 -0.310117
-0.864593 1.80567
]
[
-0.857564 -0.317146
-0.857564 1.80567
]
[
-0.850535 -0.324175
-0.850535 1.80567
]
[
-0.843506 -0.331204
-0.843506 1.80567
]
[
-0.836476 -0.338234
-0.836476 1.8127
]
[
-0.829447 -0.345263
-0.829447 1.8127
]
[
-0.822418 -0.352292
-0.822418 1.8127
]
[
-0.815389 -0.359321
-0.815389 1.8127
]
[
-0.80836 -0.36635
-0.80836 1.8127
]
[
-0.80133 -0.36635
-0.80133 1.8127
]
[
-0.794301 -0.37338
-0.794301 1.8127
]
[
-0.787272 -0.380409
-0.787272 1.8127
]
[
-0.780243 -0.387438
-0.780243 1.8127
]
[
-0.773214 -0.394467
-0.773214 1.8127
]
[
-0.766185 -0.401496
-0.766185 1.8127
]
[
-0.759155 -0.408526
-0.759155 1.8127
]
[
-0.752126 -0.415555
-0.752126 1.8127
]
[
-0.745097 -0.422584
-0.745097 1.8127
]
[
-0.738068 -0.429613
-0.738068 1.8127
]
[
-0.731039 -0.436642
-0.731039 1.8127
]
[
-0.72401 -0.436642
-0.72401 1.8127
]
[
-0.71698 -0.443672
-0.71698 1.8127
]
[
-0.709951 -0.450701
-0.709951 1.80567
]
[
-0.702922 -0.45773
-0.702922 1.80567
]
[
-0.695893 -0.464759
-0.695893 1.80567
]
[
-0.688864 -0.471788
-0.688864 1.80567
]
[
-0.681834 -0.478818
-0.681834 1.80567
]
[
-0.674805 -0.485847
-0.674805 1.80567
]
[
-0.667776 -0.485847
-0.667776 1.80567
]
[
-0.660747 -0.492876
-0.660747 1.80567
]
[
-0.653718 -0.499905
-0.653718 1.80567
]
[
-0.646689 -0.506934
-0.646689 1.80567
]
[
-0.639659 -0.513964
-0.639659 1.79864
]
[
-0.63263 -0.520993
-0.63263 1.79864
]
[
-0.625601 -0.528022
-0.625601 1.79864
]
[
-0.618572 -0.528022
-0.618572 1.79864
]
[
-0.611543 -0.535051
-0.611543 1.79864
]
[
-0.604514 -0.54208
-0.604514 1.79864
]
[
-0.597484 -0.549109
-0.597484 1.79161
]
[
-0.590455 -0.556139
-0.590455 1.79161
]
[
-0.583426 -0.563168
-0.583426 1.79161
]
[
-0.576397 -0.563168
-0.576397 1.79161
]
[
-0.569368 -0.570197
-0.569368 1.79161
]
[
-0.562338 -0.577226
-0.562338 1.78458
]
[
-0.555309 -0.584255
-0.555309 1.78458
]
[
-0.54828 -0.591285
-0.54828 1.78458
]
[
-0.541251 -0.598314
-0.541251 1.78458
]
[
-0.534222 -0.605343
-0.534222 1.77755
]
[
-0.527193 -0.605343
-0.527193 1.77755
]
[
-0.520163 -0.612372
-0.520163 1.77755
]
[
-0.513134 -0.619401
-0.513134 1.77755
]
[
-0.506105 -0.62643
-0.506105 1.77052
]
[
-0.499076 -0.63346
-0.499076 1.77052
]
[
-0.492047 -0.640489
-0.492047 1.77052
]
[
-0.485017 -0.640489
-0.485017 1.76349
]
[
-0.477988 -0.647518
-0.477988 1.76349
]
[
-0.470959 -0.654547
-0.470959 1.76349
]
[
-0.46393 -0.661576
-0.46393 1.75646
]
[
-0.456901 -0.668605
-0.456901 1.75646
]
[
-0.449871 -0.675635
-0.449871 1.75646
]
[
-0.442842 -0.675635
-0.442842 1.74943
]
[
-0.435813 -0.682664
-0.435813 1.74943
]
[
-0.428784 -0.689693
-0.428784 1.74943
]
[
-0.421755 -0.696722
-0.421755 1.7424
]
[
-0.414725 -0.703751
-0.414725 1.7424
]
[
-0.407696 -0.71078
-0.407696 1.73538
]
[
-0.400667 -0.71078
-0.400667 1.73538
]
[
-0.393638 -0.71781
-0.393638 1.73538
]
[
-0.386609 -0.724839
-0.386609 1.72835
]
[
-0.379579 -0.731868
-0.379579 1.72835
]
[
-0.37255 -0.738897
-0.37255 1.72132
]
[
-0.365521 -0.745926
-0.365521 1.72132
]
[
-0.358492 -0.745926
-0.358492 1.71429
]
[
-0.351463 -0.752955
-0.351463 1.71429
]
[
-0.344433 -0.759985
-0.344433 1.70726
]
[
-0.337404 -0.767014
-0.337404 1.70726
]
[
-0.330375 -0.774043
-0.330375 1.70023
]
[
-0.323346 -0.781072
-0.323346 1.70023
]
[
-0.316317 -0.788101
-0.316317 1.6932
]
[
-0.309287 -0.79513
-0.309287 1.6932
]
[
-0.302258 -0.79513
-0.302258 1.68617
]
[
-0.295229 -0.80216
-0.295229 1.67914
]
[
-0.2882 -0.809189
-0.2882 1.67914
]
[
-0.281171 -0.816218
-0.281171 1.67211
]
[
-0.274141 -0.823247
-0.274141 1.67211
]
[
-0.267112 -0.830276
-0.267112 1.66508
]
[
-0.260083 -0.837305
-0.260083 1.65805
]
[
-0.253054 -0.844335
-0.253054 1.65805
]
[
-0.246024 -0.851364
-0.246024 1.65103
]
[
-0.238995 -0.858393
-0.238995 1.644
]
[
-0.231966 -0.865422
-0.231966 1.644
]
[
-0.224937 -0.872451
-0.224937 1.63697
]
[
-0.217908 -0.879481
-0.217908 1.62994
]
[
-0.210878 -0.879481
-0.210878 1.62291
]
[
-0.203849 -0.88651
-0.203849 1.62291
]
[
-0.19682 -0.893539
-0.19682 1.61588
]
[
-0.189791 -0.900568
-0.189791 1.60885
]
[
-0.182762 -0.914626
-0.182762 1.60182
]
[
-0.175732 -0.921656
-0.175732 1.59479
]
[
-0.168703 -0.928685
-0.168703 1.58776
]
[
-0.161674 -0.935714
-0.161674 1.58776
]
[
-0.154645 -0.942743
-0.154645 1.58073
]
[
-0.147616 -0.949772
-0.147616 1.5737
]
[
-0.140586 -0.956801
-0.140586 1.56668
]
[
-0.133557 -0.963831
-0.133557 1.55965
]
[
-0.126528 -0.97086
-0.126528 1.55262
]
[
-0.119499 -0.984918
-0.119499 1.54559
]
[
-0.11247 -0.991947
-0.11247 1.53153
]
[
-0.10544 -0.998976
-0.10544 1.5245
]
[
-0.0984112 -1.00601
-0.0984112 1.51747
]
[
-0.091382 -1.02006
-0.091382 1.51044
]
[
-0.0843528 -1.02709
-0.0843528 1.50341
]
[
-0.0773236 -1.04115
-0.0773236 1.48935
]
[
-0.0702944 -1.04818
-0.0702944 1.48233
]
[
-0.0632652 -1.06224
-0.0632652 1.46827
]
[
-0.056236 -1.06927
-0.056236 1.46124
]
[
-0.0492068 -1.08333
-0.0492068 1.44718
]
[
-0.0421776 -1.09738
-0.0421776 1.43312
]
[
-0.0351484 -1.11144
-0.0351484 1.41906
]
[
-0.0281192 -1.1255
-0.0281192 1.405
]
[
-0.02109 -1.14659
-0.02109 1.38392
]
[
-0.0140608 -1.16768
-0.0140608 1.36283
]
[
-0.0070316 -1.19579
-0.0070316 1.33471
]
[
-2.39929e-06 -1.25906
-2.39929e-06 1.27145
]
[
0.0070268 -1.19579
0.0070268 1.33471
]
[
0.014056 -1.16768
0.014056 1.36283
]
[
0.0210852 -1.14659
0.0210852 1.38392
]
[
0.0281144 -1.1255
0.0281144 1.405
]
[
0.0351436 -1.11144
0.0351436 1.41906
]
[
0.0421728 -1.09738
0.0421728 1.43312
]
[
0.049202 -1.08333
0.049202 1.44718
]
[
0.0562312 -1.06927
0.0562312 1.46124
]
[
0.0632604 -1.06224
0.0632604 1.46827
]
[
0.0702896 -1.04818
0.0702896 1.48233
]
[
0.0773188 -1.04115
0.0773188 1.48935
]
[
0.084348 -1.02709
0.084348 1.50341
]
[
0.0913772 -1.02006
0.0913772 1.51044
]
[
0.0984064 -1.00601
0.0984064 1.51747
]
[
0.105436 -0.998976
0.105436 1.5245
]
[
0.112465 -0.991947
0.112465 1.53153
]
[
0.119494 -0.984918
0.119494 1.54559
]
[
0.126523 -0.97086
0.126523 1.55262
]
[
0.133552 -0.963831
0.133552 1.55965
]
[
0.140582 -0.956801
0.140582 1.56668
]
[
0.147611 -0.949772
0.147611 1.5737
]
[
0.15464 -0.942743
0.15464 1.58073
]
[
0.161669 -0.935714
0.161669 1.58776
]
[
0.168698 -0.928685
0.168698 1.58776
]
[
0.175728 -0.921656
0.175728 1.59479
]
[
0.182757 -0.914626
0.182757 1.60182
]
[
0.189786 -0.900568
0.189786 1.60885
]
[
0.196815 -0.893539
0.196815 1.61588
]
[
0.203844 -0.88651
0.203844 1.62291
]
[
0.210874 -0.879481
0.210874 1.62291
]
[
0.217903 -0.879481
0.217903 1.62994
]
[
0.224932 -0.872451
0.224932 1.63697
]
[
0.231961 -0.865422
0.231961 1.644
]
[
0.23899 -0.858393
0.23899 1.644
]
[
0.24602 -0.851364
0.24602 1.65103
]
[
0.253049 -0.844335
0.253049 1.65805
]
[
0.260078 -0.837305
0.260078 1.65805
]
[
0.267107 -0.830276
0.267107 1.66508
]
[
0.274137 -0.823247
0.274137 1.67211
]
[
0.281166 -0.816218
0.281166 1.67211
]
[
0.288195 -0.809189
0.288195 1.67914
]
[
0.295224 -0.80216
0.295224 1.67914
]
[
0.302253 -0.79513
0.302253 1.68617
]
[
0.309283 -0.79513
0.309283 1.6932
]
[
0.316312 -0.788101
0.316312 1.6932
]
[
0.323341 -0.781072
0.323341 1.70023
]
[
0.33037 -0.774043
0.33037 1.70023
]
[
0.337399 -0.767014
0.337399 1.70726
]
[
0.344429 -0.759985
0.344429 1.70726
]
[
0.351458 -0.752955
0.351458 1.71429
]
[
0.358487 -0.745926
0.358487 1.71429
]
[
0.365516 -0.745926
0.365516 1.72132
]
[
0.372545 -0.738897
0.372545 1.72132
]
[
0.379575 -0.731868
0.379575 1.72835
]
[
0.386604 -0.724839
0.386604 1.72835
]
[
0.393633 -0.71781
0.393633 1.73538
]
[
0.400662 -0.71078
0.400662 1.73538
]
[
0.407691 -0.71078
0.407691 1.73538
]
[
0.414721 -0.703751
0.414721 1.7424
]
[
0.42175 -0.696722
0.42175 1.7424
]
[
0.428779 -0.689693
0.428779 1.74943
]
[
0.435808 -0.682664
0.435808 1.74943
]
[
0.442837 -0.675635
0.442837 1.74943
]
[
0.449867 -0.675635
0.449867 1.75646
]
[
0.456896 -0.668605
0.456896 1.75646
]
[
0.463925 -0.661576
0.463925 1.75646
]
[
0.470954 -0.654547
0.470954 1.76349
]
[
0.477983 -0.647518
0.477983 1.76349
]
[
0.485013 -0.640489
0.485013 1.76349
]
[
0.492042 -0.640489
0.492042 1.77052
]
[
0.499071 -0.63346
0.499071 1.77052
]
[
0.5061 -0.62643
0.5061 1.77052
]
[
0.513129 -0.619401
0.513129 1.77755
]
[
0.520159 -0.612372
0.520159 1.77755
]
[
0.527188 -0.605343
0.527188 1.77755
]
[
0.534217 -0.605343
0.534217 1.77755
]
[
0.541246 -0.598314
0.541246 1.78458
]
[
0.548275 -0.591285
0.548275 1.78458
]
[
0.555305 -0.584255
0.555305 1.78458
]
[
0.562334 -0.577226
0.562334 1.78458
]
[
0.569363 -0.570197
0.569363 1.79161
]
[
0.576392 -0.563168
0.576392 1.79161
]
[
0.583421 -0.563168
0.583421 1.79161
]
[
0.59045 -0.556139
0.59045 1.79161
]
[
0.59748 -0.549109
0.59748 1.79161
]
[
0.604509 -0.54208
0.604509 1.79864
]
[
0.611538 -0.535051
0.611538 1.79864
]
[
0.618567 -0.528022
0.618567 1.79864
]
[
0.625596 -0.528022
0.625596 1.79864
]
[
0.632625 -0.520993
0.632625 1.79864
]
[
0.639655 -0.513964
0.639655 1.79864
]
[
0.646684 -0.506934
0.646684 1.80567
]
[
0.653713 -0.499905
0.653713 1.80567
]
[
0.660742 -0.492876
0.660742 1.80567
]
[
0.667771 -0.485847
0.667771 1.80567
]
[
0.6748 -0.485847
0.6748 1.80567
]
[
0.68183 -0.478818
0.68183 1.80567
]
[
0.688859 -0.471788
0.688859 1.80567
]
[
0.695888 -0.464759
0.695888 1.80567
]
[
0.702917 -0.45773
0.702917 1.80567
]
[
0.709946 -0.450701
0.709946 1.80567
]
[
0.716976 -0.443672
0.716976 1.8127
]
[
0.724005 -0.436642
0.724005 1.8127
]
[
0.731034 -0.436642
0.731034 1.8127
]
[
0.738063 -0.429613
0.738063 1.8127
]
[
0.745092 -0.422584
0.745092 1.8127
]
[
0.752121 -0.415555
0.752121 1.8127
]
[
0.759151 -0.408526
0.759151 1.8127
]
[
0.76618 -0.401496
0.76618 1.8127
]
[
0.773209 -0.394467
0.773209 1.8127
]
[
0.780238 -0.387438
0.780238 1.8127
]
[
0.787267 -0.380409
0.787267 1.8127
]
[
0.794296 -0.37338
0.794296 1.8127
]
[
0.801326 -0.36635
0.801326 1.8127
]
[
0.808355 -0.36635
0.808355 1.8127
]
[
0.815384 -0.359321
0.815384 1.8127
]
[
0.822413 -0.352292
0.822413 1.8127
]
[
0.829442 -0.345263
0.829442 1.8127
]
[
0.836472 -0.338234
0.836472 1.8127
]
[
0.843501 -0.331204
0.843501 1.80567
]
[
0.85053 -0.324175
0.85053 1.80567
]
[
0.857559 -0.317146
0.857559 1.80567
]
[
0.864588 -0.310117
0.864588 1.80567
]
[
0.871617 -0.303088
0.871617 1.80567
]
[
0.878647 -0.296058
0.878647 1.80567
]
[
0.885676 -0.289029
0.885676 1.80567
]
[
0.892705 -0.282
0.892705 1.80567
]
[
0.899734 -0.274971
0.899734 1.80567
]
[
0.906763 -0.267942
0.906763 1.80567
]
[
0.913792 -0.260912
0.913792 1.79864
]
[
0.920822 -0.253883
0.920822 1.79864
]
[
0.927851 -0.246854
0.927851 1.79864
]
[
0.93488 -0.239825
0.93488 1.79864
]
[
0.941909 -0.232796
0.941909 1.79864
]
[
0.948938 -0.225766
0.948938 1.79864
]
[
0.955967 -0.218737
0.955967 1.79161
]
[
0.962997 -0.211708
0.962997 1.79161
]
[
0.970026 -0.204679
0.970026 1.79161
]
[
0.977055 -0.19765
0.977055 1.79161
]
[
0.984084 -0.19062
0.984084 1.78458
]
[
0.991113 -0.183591
0.991113 1.78458
]
[
0.998143 -0.176562
0.998143 1.78458
]
[
1.00517 -0.169533
1.00517 1.78458
]
[
1.0122 -0.162504
1.0122 1.77755
]
[
1.01923 -0.155474
1.01923 1.77755
]
[
1.02626 -0.148445
1.02626 1.77755
]
[
1.03329 -0.141416
1.03329 1.77755
]
[
1.04032 -0.134387
1.04032 1.77052
]
[
1.04735 -0.120328
1.04735 1.77052
]
[
1.05438 -0.113299
1.05438 1.77052
]
[
1.06141 -0.10627
1.06141 1.76349
]
[
1.06843 -0.0992407
1.06843 1.76349
]
[
1.07546 -0.0922115
1.07546 1.76349
]
[
1.08249 -0.0851823
1.08249 1.75646
]
[
1.08952 -0.0781531
1.08952 1.75646
]
[
1.09655 -0.0711239
1.09655 1.74943
]
[
1.10358 -0.0570655
1.10358 1.74943
]
[
1.11061 -0.0500363
1.11061 1.74943
]
[
1.11764 -0.0430071
1.11764 1.7424
]
[
1.12467 -0.0359779
1.12467 1.7424
]
[
1.1317 -0.0289487
1.1317 1.73538
]
[
1.13873 -0.0148903
1.13873 1.73538
]
[
1.14576 -0.0078611
1.14576 1.72835
]
[
1.15279 -0.000831896
1.15279 1.72835
]
[
1.15981 0.0061973
1.15981 1.72132
]
[
1.16684 0.0202557
1.16684 1.72132
]
[
1.17387 0.0272849
1.17387 1.71429
]
[
1.1809 0.0343141
1.1809 1.71429
]
[
1.18793 0.0413433
1.18793 1.70726
]
[
1.19496 0.0554017
1.19496 1.70726
]
[
1.20199 0.0624309
1.20199 1.70023
]
[
1.20902 0.0694601
1.20902 1.70023
]
[
1.21605 0.0835185
1.21605 1.6932
]
[
1.22308 0.0905477
1.22308 1.68617
]
[
1.23011 0.0975769
1.23011 1.68617
]
[
1.23714 0.111635
1.23714 1.67914
]
[
1.24417 0.118665
1.24417 1.67914
]
[
1.25119 0.125694
1.25119 1.67211
]
[
1.25822 0.139752
1.25822 1.66508
]
[
1.26525 0.146781
1.26525 1.65805
]
[
1.27228 0.16084
1.27228 1.65805
]
[
1.27931 0.167869
1.27931 1.65103
]
[
1.28634 0.181927
1.28634 1.644
]
[
1.29337 0.188957
1.29337 1.63697
]
[
1.3004 0.203015
1.3004 1.63697
]
[
1.30743 0.210044
1.30743 1.62994
]
[
1.31446 0.224103
1.31446 1.62291
]
[
1.32149 0.231132
1.32149 1.61588
]
[
1.32852 0.24519
1.32852 1.60885
]
[
1.33555 0.252219
1.33555 1.60182
]
[
1.34258 0.266278
1.34258 1.59479
]
[
1.3496 0.280336
1.3496 1.58776
]
[
1.35663 0.287365
1.35663 1.58073
]
[
1.36366 0.301424
1.36366 1.5737
]
[
1.37069 0.315482
1.37069 1.56668
]
[
1.37772 0.329541
1.37772 1.55965
]
[
1.38475 0.33657
1.38475 1.55262
]
[
1.39178 0.350628
1.39178 1.54559
]
[
1.39881 0.364687
1.39881 1.53856
]
[
1.40584 0.378745
1.40584 1.53153
]
[
1.41287 0.392803
1.41287 1.51747
]
[
1.4199 0.406862
1.4199 1.51044
]
[
1.42693 0.42092
1.42693 1.50341
]
[
1.43396 0.434979
1.43396 1.48935
]
[
1.44098 0.449037
1.44098 1.48233
]
[
1.44801 0.463095
1.44801 1.46827
]
[
1.45504 0.477154
1.45504 1.46124
]
[
1.46207 0.498241
1.46207 1.44718
]
[
1.4691 0.5123
1.4691 1.44015
]
[
1.47613 0.526358
1.47613 1.42609
]
[
1.48316 0.547446
1.48316 1.41203
]
[
1.49019 0.561504
1.49019 1.39798
]
[
1.49722 0.582591
1.49722 1.38392
]
[
1.50425 0.603679
1.50425 1.36986
]
[
1.51128 0.624766
1.51128 1.3558
]
[
1.51831 0.645854
1.51831 1.33471
]
[
1.52534 0.666941
1.52534 1.32065
]
[
1.53236 0.695058
1.53236 1.29957
]
[
1.53939 0.716146
1.53939 1.27848
]
[
1.54642 0.744262
1.54642 1.25036
]
[
1.55345 0.779408
1.55345 1.22225
]
[
1.56048 0.814554
1.56048 1.19413
]
[
1.56751 0.856729
1.56751 1.15195
]
[
1.57454 0.919992
1.57454 1.09572
]
[
]
[
]
[
]
[
]
[
]
[
]
[
]
[
]
[
]
[
]
[
]
[
]
[
]
[
]
[
]
[
]
[
]
[
]
[
]
[
]
[
]
[
]
[
]
[
]
[
]
[
]
[
]
[
]
[
]
[
]
[
]
[
]
[
]
[
]
[
]
[
]
[
]
[
]
[
]
[
]
[
]
[
]
[
]
[
]
[
]
[
]
[
]
[
]
[
]
[
]
[
]
[
]
[
]
[
]
[
]
[
]
[
]
[
]
[
]
[
]
[
]
[
]
[
]
[
]
[
]
[
]
[
]
[
]
[
]
[
]
[
]
[
]
[
]
[
]
[
]
[
]
[
]
[
]
[
]
[
]
[
]
[
]
[
]
[
]
[
]
[
]
[
]
[
]
[
]
[
]
[
]
[
]
[
]
[
]
[
]
[
]
[
]
[
]
[
]
[
]
[
]
[
]
[
]
[
]
[
]
[
]
[
]
[
]
[
]
[
]
[
]
[
]
[
]
[
]
[
]
[
]
[
]
[
]
[
]
[
]
[
]
[
]
[
]
[
]
[
]
[
]
[
]
[
]
[
]
[
]
[
]
[
]
[
]
[
]
[
]
[
]
[
]
[
]
[
]
[
]
[
]
[
]
[
]
[
]
[
]
[
]
[
]
[
]
[
]
[
]
[
]
[
]
[
]
[
]
[
]
[
]
[
]
[
]
[
]
[
]
[
]
[
]
[
]
[
]
[
]
[
]
[
]
[
]
[
]
[
]
[
]
[
]
[
]
[
]
[
]
[
]
[
]
[
]
[
]
[
]
[
]
[
]
[
]
[
]
[
]
[
]
[
]
[
]
[
]
[
]
[
]
[
]
[
]
[
]
[
]
[
]
[
]
[
]
[
]
[
]
[
]
[
-2.39929e-06 -1.25906
0.0070268 -1.25906
]
[
-2.39929e-06 -1.25203
0.0070268 -1.25203
]
[
-2.39929e-06 -1.245
0.0070268 -1.245
]
[
-2.39929e-06 -1.23797
0.0070268 -1.23797
]
[
-2.39929e-06 -1.23094
0.0070268 -1.23094
]
[
-2.39929e-06 -1.22391
0.0070268 -1.22391
]
[
-2.39929e-06 -1.21688
0.0070268 -1.21688
]
[
-2.39929e-06 -1.20985
0.0070268 -1.20985
]
[
-2.39929e-06 -1.20282
0.0070268 -1.20282
]
[
-0.0070316 -1.19579
0.014056 -1.19579
]
[
-0.0070316 -1.18876
0.014056 -1.18876
]
[
-0.0070316 -1.18173
0.014056 -1.18173
]
[
-0.0070316 -1.17471
0.014056 -1.17471
]
[
-0.0140608 -1.16768
0.0210852 -1.16768
]
[
-0.0140608 -1.16065
0.0210852 -1.16065
]
[
-0.0140608 -1.15362
0.0210852 -1.15362
]
[
-0.02109 -1.14659
0.0281144 -1.14659
]
[
-0.02109 -1.13956
0.0281144 -1.13956
]
[
-0.02109 -1.13253
0.0281144 -1.13253
]
[
-0.0281192 -1.1255
0.0351436 -1.1255
]
[
-0.0281192 -1.11847
0.0351436 -1.11847
]
[
-0.0351484 -1.11144
0.0421728 -1.11144
]
[
-0.0351484 -1.10441
0.0421728 -1.10441
]
[
-0.0421776 -1.09738
0.049202 -1.09738
]
[
-0.0421776 -1.09036
0.049202 -1.09036
]
[
-0.0492068 -1.08333
0.0562312 -1.08333
]
[
-0.0492068 -1.0763
0.0562312 -1.0763
]
[
-0.056236 -1.06927
0.0632604 -1.06927
]
[
-0.0632652 -1.06224
0.0702896 -1.06224
]
[
-0.0632652 -1.05521
0.0702896 -1.05521
]
[
-0.0702944 -1.04818
0.0773188 -1.04818
]
[
-0.0773236 -1.04115
0.084348 -1.04115
]
[
-0.0773236 -1.03412
0.084348 -1.03412
]
[
-0.0843528 -1.02709
0.0913772 -1.02709
]
[
-0.091382 -1.02006
0.0984064 -1.02006
]
[
-0.091382 -1.01303
0.0984064 -1.01303
]
[
-0.0984112 -1.00601
0.105436 -1.00601
]
[
-0.10544 -0.998976
0.112465 -0.998976
]
[
-0.11247 -0.991947
0.119494 -0.991947
]
[
-0.119499 -0.984918
0.126523 -0.984918
]
[
-0.119499 -0.977889
0.126523 -0.977889
]
[
-0.126528 -0.97086
0.133552 -0.97086
]
[
-0.133557 -0.963831
0.140582 -0.963831
]
[
-0.140586 -0.956801
0.147611 -0.956801
]
[
-0.147616 -0.949772
0.15464 -0.949772
]
[
-0.154645 -0.942743
0.161669 -0.942743
]
[
-0.161674 -0.935714
0.168698 -0.935714
]
[
-0.168703 -0.928685
0.175728 -0.928685
]
[
-0.175732 -0.921656
0.182757 -0.921656
]
[
-0.182762 -0.914626
0.189786 -0.914626
]
[
-0.182762 -0.907597
0.189786 -0.907597
]
[
-0.189791 -0.900568
0.196815 -0.900568
]
[
-0.19682 -0.893539
0.203844 -0.893539
]
[
-0.203849 -0.88651
0.210874 -0.88651
]
[
-0.217908 -0.879481
0.224932 -0.879481
]
[
-0.224937 -0.872451
0.231961 -0.872451
]
[
-0.231966 -0.865422
0.23899 -0.865422
]
[
-0.238995 -0.858393
0.24602 -0.858393
]
[
-0.246024 -0.851364
0.253049 -0.851364
]
[
-0.253054 -0.844335
0.260078 -0.844335
]
[
-0.260083 -0.837305
0.267107 -0.837305
]
[
-0.267112 -0.830276
0.274137 -0.830276
]
[
-0.274141 -0.823247
0.281166 -0.823247
]
[
-0.281171 -0.816218
0.288195 -0.816218
]
[
-0.2882 -0.809189
0.295224 -0.809189
]
[
-0.295229 -0.80216
0.302253 -0.80216
]
[
-0.309287 -0.79513
0.316312 -0.79513
]
[
-0.316317 -0.788101
0.323341 -0.788101
]
[
-0.323346 -0.781072
0.33037 -0.781072
]
[
-0.330375 -0.774043
0.337399 -0.774043
]
[
-0.337404 -0.767014
0.344429 -0.767014
]
[
-0.344433 -0.759985
0.351458 -0.759985
]
[
-0.351463 -0.752955
0.358487 -0.752955
]
[
-0.365521 -0.745926
0.372545 -0.745926
]
[
-0.37255 -0.738897
0.379575 -0.738897
]
[
-0.379579 -0.731868
0.386604 -0.731868
]
[
-0.386609 -0.724839
0.393633 -0.724839
]
[
-0.393638 -0.71781
0.400662 -0.71781
]
[
-0.407696 -0.71078
0.414721 -0.71078
]
[
-0.414725 -0.703751
0.42175 -0.703751
]
[
-0.421755 -0.696722
0.428779 -0.696722
]
[
-0.428784 -0.689693
0.435808 -0.689693
]
[
-0.435813 -0.682664
0.442837 -0.682664
]
[
-0.449871 -0.675635
0.456896 -0.675635
]
[
-0.456901 -0.668605
0.463925 -0.668605
]
[
-0.46393 -0.661576
0.470954 -0.661576
]
[
-0.470959 -0.654547
0.477983 -0.654547
]
[
-0.477988 -0.647518
0.485013 -0.647518
]
[
-0.492047 -0.640489
0.499071 -0.640489
]
[
-0.499076 -0.63346
0.5061 -0.63346
]
[
-0.506105 -0.62643
0.513129 -0.62643
]
[
-0.513134 -0.619401
0.520159 -0.619401
]
[
-0.520163 -0.612372
0.527188 -0.612372
]
[
-0.534222 -0.605343
0.541246 -0.605343
]
[
-0.541251 -0.598314
0.548275 -0.598314
]
[
-0.54828 -0.591285
0.555305 -0.591285
]
[
-0.555309 -0.584255
0.562334 -0.584255
]
[
-0.562338 -0.577226
0.569363 -0.577226
]
[
-0.569368 -0.570197
0.576392 -0.570197
]
[
-0.583426 -0.563168
0.59045 -0.563168
]
[
-0.590455 -0.556139
0.59748 -0.556139
]
[
-0.597484 -0.549109
0.604509 -0.549109
]
[
-0.604514 -0.54208
0.611538 -0.54208
]
[
-0.611543 -0.535051
0.618567 -0.535051
]
[
-0.625601 -0.528022
0.632625 -0.528022
]
[
-0.63263 -0.520993
0.639655 -0.520993
]
[
-0.639659 -0.513964
0.646684 -0.513964
]
[
-0.646689 -0.506934
0.653713 -0.506934
]
[
-0.653718 -0.499905
0.660742 -0.499905
]
[
-0.660747 -0.492876
0.667771 -0.492876
]
[
-0.674805 -0.485847
0.68183 -0.485847
]
[
-0.681834 -0.478818
0.688859 -0.478818
]
[
-0.688864 -0.471788
0.695888 -0.471788
]
[
-0.695893 -0.464759
0.702917 -0.464759
]
[
-0.702922 -0.45773
0.709946 -0.45773
]
[
-0.709951 -0.450701
0.716976 -0.450701
]
[
-0.71698 -0.443672
0.724005 -0.443672
]
[
-0.731039 -0.436642
0.738063 -0.436642
]
[
-0.738068 -0.429613
0.745092 -0.429613
]
[
-0.745097 -0.422584
0.752121 -0.422584
]
[
-0.752126 -0.415555
0.759151 -0.415555
]
[
-0.759155 -0.408526
0.76618 -0.408526
]
[
-0.766185 -0.401496
0.773209 -0.401496
]
[
-0.773214 -0.394467
0.780238 -0.394467
]
[
-0.780243 -0.387438
0.787267 -0.387438
]
[
-0.787272 -0.380409
0.794296 -0.380409
]
[
-0.794301 -0.37338
0.801326 -0.37338
]
[
-0.80836 -0.36635
0.815384 -0.36635
]
[
-0.815389 -0.359321
0.822413 -0.359321
]
[
-0.822418 -0.352292
0.829442 -0.352292
]
[
-0.829447 -0.345263
0.836472 -0.345263
]
[
-0.836476 -0.338234
0.843501 -0.338234
]
[
-0.843506 -0.331204
0.85053 -0.331204
]
[
-0.850535 -0.324175
0.857559 -0.324175
]
[
-0.857564 -0.317146
0.864588 -0.317146
]
[
-0.864593 -0.310117
0.871617 -0.310117
]
[
-0.871622 -0.303088
0.878647 -0.303088
]
[
-0.878651 -0.296058
0.885676 -0.296058
]
[
-0.88568 -0.289029
0.892705 -0.289029
]
[
-0.89271 -0.282
0.899734 -0.282
]
[
-0.899739 -0.274971
0.906763 -0.274971
]
[
-0.906768 -0.267942
0.913792 -0.267942
]
[
-0.913797 -0.260912
0.920822 -0.260912
]
[
-0.920826 -0.253883
0.927851 -0.253883
]
[
-0.927856 -0.246854
0.93488 -0.246854
]
[
-0.934885 -0.239825
0.941909 -0.239825
]
[
-0.941914 -0.232796
0.948938 -0.232796
]
[
-0.948943 -0.225766
0.955967 -0.225766
]
[
-0.955972 -0.218737
0.962997 -0.218737
]
[
-0.963001 -0.211708
0.970026 -0.211708
]
[
-0.970031 -0.204679
0.977055 -0.204679
]
[
-0.97706 -0.19765
0.984084 -0.19765
]
[
-0.984089 -0.19062
0.991113 -0.19062
]
[
-0.991118 -0.183591
0.998143 -0.183591
]
[
-0.998147 -0.176562
1.00517 -0.176562
]
[
-1.00518 -0.169533
1.0122 -0.169533
]
[
-1.01221 -0.162504
1.01923 -0.162504
]
[
-1.01924 -0.155474
1.02626 -0.155474
]
[
-1.02626 -0.148445
1.03329 -0.148445
]
[
-1.03329 -0.141416
1.04032 -0.141416
]
[
-1.04032 -0.134387
1.04735 -0.134387
]
[
-1.04032 -0.127358
1.04735 -0.127358
]
[
-1.04735 -0.120328
1.05438 -0.120328
]
[
-1.05438 -0.113299
1.06141 -0.113299
]
[
-1.06141 -0.10627
1.06843 -0.10627
]
[
-1.06844 -0.0992407
1.07546 -0.0992407
]
[
-1.07547 -0.0922115
1.08249 -0.0922115
]
[
-1.0825 -0.0851823
1.08952 -0.0851823
]
[
-1.08953 -0.0781531
1.09655 -0.0781531
]
[
-1.09656 -0.0711239
1.10358 -0.0711239
]
[
-1.09656 -0.0640947
1.10358 -0.0640947
]
[
-1.10359 -0.0570655
1.11061 -0.0570655
]
[
-1.11062 -0.0500363
1.11764 -0.0500363
]
[
-1.11764 -0.0430071
1.12467 -0.0430071
]
[
-1.12467 -0.0359779
1.1317 -0.0359779
]
[
-1.1317 -0.0289487
1.13873 -0.0289487
]
[
-1.1317 -0.0219195
1.13873 -0.0219195
]
[
-1.13873 -0.0148903
1.14576 -0.0148903
]
[
-1.14576 -0.0078611
1.15279 -0.0078611
]
[
-1.15279 -0.000831896
1.15981 -0.000831896
]
[
-1.15982 0.0061973
1.16684 0.0061973
]
[
-1.15982 0.0132265
1.16684 0.0132265
]
[
-1.16685 0.0202557
1.17387 0.0202557
]
[
-1.17388 0.0272849
1.1809 0.0272849
]
[
-1.18091 0.0343141
1.18793 0.0343141
]
[
-1.18794 0.0413433
1.19496 0.0413433
]
[
-1.18794 0.0483725
1.19496 0.0483725
]
[
-1.19497 0.0554017
1.20199 0.0554017
]
[
-1.202 0.0624309
1.20902 0.0624309
]
[
-1.20902 0.0694601
1.21605 0.0694601
]
[
-1.20902 0.0764893
1.21605 0.0764893
]
[
-1.21605 0.0835185
1.22308 0.0835185
]
[
-1.22308 0.0905477
1.23011 0.0905477
]
[
-1.23011 0.0975769
1.23714 0.0975769
]
[
-1.23011 0.104606
1.23714 0.104606
]
[
-1.23714 0.111635
1.24417 0.111635
]
[
-1.24417 0.118665
1.25119 0.118665
]
[
-1.2512 0.125694
1.25822 0.125694
]
[
-1.2512 0.132723
1.25822 0.132723
]
[
-1.25823 0.139752
1.26525 0.139752
]
[
-1.26526 0.146781
1.27228 0.146781
]
[
-1.26526 0.153811
1.27228 0.153811
]
[
-1.27229 0.16084
1.27931 0.16084
]
[
-1.27932 0.167869
1.28634 0.167869
]
[
-1.27932 0.174898
1.28634 0.174898
]
[
-1.28635 0.181927
1.29337 0.181927
]
[
-1.29338 0.188957
1.3004 0.188957
]
[
-1.29338 0.195986
1.3004 0.195986
]
[
-1.3004 0.203015
1.30743 0.203015
]
[
-1.30743 0.210044
1.31446 0.210044
]
[
-1.30743 0.217073
1.31446 0.217073
]
[
-1.31446 0.224103
1.32149 0.224103
]
[
-1.32149 0.231132
1.32852 0.231132
]
[
-1.32149 0.238161
1.32852 0.238161
]
[
-1.32852 0.24519
1.33555 0.24519
]
[
-1.33555 0.252219
1.34258 0.252219
]
[
-1.33555 0.259249
1.34258 0.259249
]
[
-1.34258 0.266278
1.3496 0.266278
]
[
-1.34258 0.273307
1.3496 0.273307
]
[
-1.34961 0.280336
1.35663 0.280336
]
[
-1.35664 0.287365
1.36366 0.287365
]
[
-1.35664 0.294395
1.36366 0.294395
]
[
-1.36367 0.301424
1.37069 0.301424
]
[
-1.36367 0.308453
1.37069 0.308453
]
[
-1.3707 0.315482
1.37772 0.315482
]
[
-1.3707 0.322511
1.37772 0.322511
]
[
-1.37773 0.329541
1.38475 0.329541
]
[
-1.38476 0.33657
1.39178 0.33657
]
[
-1.38476 0.343599
1.39178 0.343599
]
[
-1.39178 0.350628
1.39881 0.350628
]
[
-1.39178 0.357657
1.39881 0.357657
]
[
-1.39881 0.364687
1.40584 0.364687
]
[
-1.39881 0.371716
1.40584 0.371716
]
[
-1.40584 0.378745
1.41287 0.378745
]
[
-1.40584 0.385774
1.41287 0.385774
]
[
-1.41287 0.392803
1.4199 0.392803
]
[
-1.41287 0.399833
1.4199 0.399833
]
[
-1.4199 0.406862
1.42693 0.406862
]
[
-1.4199 0.413891
1.42693 0.413891
]
[
-1.42693 0.42092
1.43396 0.42092
]
[
-1.42693 0.427949
1.43396 0.427949
]
[
-1.43396 0.434979
1.44098 0.434979
]
[
-1.43396 0.442008
1.44098 0.442008
]
[
-1.44099 0.449037
1.44801 0.449037
]
[
-1.44099 0.456066
1.44801 0.456066
]
[
-1.44802 0.463095
1.45504 0.463095
]
[
-1.44802 0.470125
1.45504 0.470125
]
[
-1.45505 0.477154
1.46207 0.477154
]
[
-1.45505 0.484183
1.46207 0.484183
]
[
-1.45505 0.491212
1.46207 0.491212
]
[
-1.46208 0.498241
1.4691 0.498241
]
[
-1.46208 0.505271
1.4691 0.505271
]
[
-1.46911 0.5123
1.47613 0.5123
]
[
-1.46911 0.519329
1.47613 0.519329
]
[
-1.47614 0.526358
1.48316 0.526358
]
[
-1.47614 0.533387
1.48316 0.533387
]
[
-1.47614 0.540416
1.48316 0.540416
]
[
-1.48316 0.547446
1.49019 0.547446
]
[
-1.48316 0.554475
1.49019 0.554475
]
[
-1.49019 0.561504
1.49722 0.561504
]
[
-1.49019 0.568533
1.49722 0.568533
]
[
-1.49019 0.575562
1.49722 0.575562
]
[
-1.49722 0.582591
1.50425 0.582591
]
[
-1.49722 0.589621
1.50425 0.589621
]
[
-1.49722 0.59665
1.50425 0.59665
]
[
-1.50425 0.603679
1.51128 0.603679
]
[
-1.50425 0.610708
1.51128 0.610708
]
[
-1.50425 0.617737
1.51128 0.617737
]
[
-1.51128 0.624766
1.51831 0.624766
]
[
-1.51128 0.631796
1.51831 0.631796
]
[
-1.51128 0.638825
1.51831 0.638825
]
[
-1.51831 0.645854
1.52534 0.645854
]
[
-1.51831 0.652883
1.52534 0.652883
]
[
-1.51831 0.659912
1.52534 0.659912
]
[
-1.52534 0.666941
1.53236 0.666941
]
[
-1.52534 0.673971
1.53236 0.673971
]
[
-1.52534 0.681
1.53236 0.681
]
[
-1.52534 0.688029
1.53236 0.688029
]
[
-1.53237 0.695058
1.53939 0.695058
]
[
-1.53237 0.702087
1.53939 0.702087
]
[
-1.53237 0.709117
1.53939 0.709117
]
[
-1.5394 0.716146
1.54642 0.716146
]
[
-1.5394 0.723175
1.54642 0.723175
]
[
-1.5394 0.730204
1.54642 0.730204
]
[
-1.5394 0.737233
1.54642 0.737233
]
[
-1.54643 0.744262
1.55345 0.744262
]
[
-1.54643 0.751292
1.55345 0.751292
]
[
-1.54643 0.758321
1.55345 0.758321
]
[
-1.54643 0.76535
1.55345 0.76535
]
[
-1.54643 0.772379
1.55345 0.772379
]
[
-1.55346 0.779408
1.56048 0.779408
]
[
-1.55346 0.786437
1.56048 0.786437
]
[
-1.55346 0.793467
1.56048 0.793467
]
[
-1.55346 0.800496
1.56048 0.800496
]
[
-1.55346 0.807525
1.56048 0.807525
]
[
-1.56049 0.814554
1.56751 0.814554
]
[
-1.56049 0.821583
1.56751 0.821583
]
[
-1.56049 0.828612
1.56751 0.828612
]
[
-1.56049 0.835642
1.56751 0.835642
]
[
-1.56049 0.842671
1.56751 0.842671
]
[
-1.56049 0.8497
1.56751 0.8497
]
[
-1.56752 0.856729
1.57454 0.856729
]
[
-1.56752 0.863758
1.57454 0.863758
]
[
-1.56752 0.870788
1.57454 0.870788
]
[
-1.56752 0.877817
1.57454 0.877817
]
[
-1.56752 0.884846
1.57454 0.884846
]
[
-1.56752 0.891875
1.57454 0.891875
]
[
-1.56752 0.898904
1.57454 0.898904
]
[
-1.56752 0.905933
1.57454 0.905933
]
[
-1.56752 0.912963
1.57454 0.912963
]
[
-1.57454 0.919992
1.58157 0.919992
]
[
-1.57454 0.927021
1.58157 0.927021
]
[
-1.57454 0.93405
1.58157 0.93405
]
[
-1.57454 0.941079
1.58157 0.941079
]
[
-1.57454 0.948108
1.58157 0.948108
]
[
-1.57454 0.955138
1.58157 0.955138
]
[
-1.57454 0.962167
1.58157 0.962167
]
[
-1.57454 0.969196
1.58157 0.969196
]
[
-1.57454 0.976225
1.58157 0.976225
]
[
-1.57454 0.983254
1.58157 0.983254
]
[
-1.57454 0.990283
1.58157 0.990283
]
[
-1.57454 0.997313
1.58157 0.997313
]
[
-1.57454 1.00434
1.58157 1.00434
]
[
-1.57454 1.01137
1.58157 1.01137
]
[
-1.57454 1.0184
1.58157 1.0184
]
[
-1.57454 1.02543
1.58157 1.02543
]
[
-1.57454 1.03246
1.58157 1.03246
]
[
-1.57454 1.03949
1.58157 1.03949
]
[
-1.57454 1.04652
1.58157 1.04652
]
[
-1.57454 1.05355
1.58157 1.05355
]
[
-1.57454 1.06058
1.58157 1.06058
]
[
-1.57454 1.0676
1.58157 1.0676
]
[
-1.57454 1.07463
1.58157 1.07463
]
[
-1.57454 1.08166
1.58157 1.08166
]
[
-1.57454 1.08869
1.58157 1.08869
]
[
-1.56752 1.09572
1.57454 1.09572
]
[
-1.56752 1.10275
1.57454 1.10275
]
[
-1.56752 1.10978
1.57454 1.10978
]
[
-1.56752 1.11681
1.57454 1.11681
]
[
-1.56752 1.12384
1.57454 1.12384
]
[
-1.56752 1.13087
1.57454 1.13087
]
[
-1.56752 1.1379
1.57454 1.1379
]
[
-1.56752 1.14493
1.57454 1.14493
]
[
-1.56049 1.15195
1.56751 1.15195
]
[
-1.56049 1.15898
1.56751 1.15898
]
[
-1.56049 1.16601
1.56751 1.16601
]
[
-1.56049 1.17304
1.56751 1.17304
]
[
-1.56049 1.18007
1.56751 1.18007
]
[
-1.56049 1.1871
1.56751 1.1871
]
[
-1.55346 1.19413
1.56048 1.19413
]
[
-1.55346 1.20116
1.56048 1.20116
]
[
-1.55346 1.20819
1.56048 1.20819
]
[
-1.55346 1.21522
1.56048 1.21522
]
[
-1.54643 1.22225
1.55345 1.22225
]
[
-1.54643 1.22928
1.55345 1.22928
]
[
-1.54643 1.2363
1.55345 1.2363
]
[
-1.54643 1.24333
1.55345 1.24333
]
[
-1.5394 1.25036
1.54642 1.25036
]
[
-1.5394 1.25739
1.54642 1.25739
]
[
-1.5394 1.26442
1.54642 1.26442
]
[
-1.5394 1.27145
-2.39929e-06 1.27145
0.0070268 1.27145
1.54642 1.27145
]
[
-1.53237 1.27848
-2.39929e-06 1.27848
0.0070268 1.27848
1.53939 1.27848
]
[
-1.53237 1.28551
-2.39929e-06 1.28551
0.0070268 1.28551
1.53939 1.28551
]
[
-1.53237 1.29254
-2.39929e-06 1.29254
0.0070268 1.29254
1.53939 1.29254
]
[
-1.52534 1.29957
-2.39929e-06 1.29957
0.0070268 1.29957
1.53236 1.29957
]
[
-1.52534 1.3066
-2.39929e-06 1.3066
0.0070268 1.3066
1.53236 1.3066
]
[
-1.52534 1.31363
-2.39929e-06 1.31363
0.0070268 1.31363
1.53236 1.31363
]
[
-1.51831 1.32065
-2.39929e-06 1.32065
0.0070268 1.32065
1.52534 1.32065
]
[
-1.51831 1.32768
-2.39929e-06 1.32768
0.0070268 1.32768
1.52534 1.32768
]
[
-1.51128 1.33471
-0.0070316 1.33471
0.014056 1.33471
1.51831 1.33471
]
[
-1.51128 1.34174
-0.0070316 1.34174
0.014056 1.34174
1.51831 1.34174
]
[
-1.51128 1.34877
-0.0070316 1.34877
0.014056 1.34877
1.51831 1.34877
]
[
-1.50425 1.3558
-0.0070316 1.3558
0.014056 1.3558
1.51128 1.3558
]
[
-1.50425 1.36283
-0.0140608 1.36283
0.0210852 1.36283
1.51128 1.36283
]
[
-1.49722 1.36986
-0.0140608 1.36986
0.0210852 1.36986
1.50425 1.36986
]
[
-1.49722 1.37689
-0.0140608 1.37689
0.0210852 1.37689
1.50425 1.37689
]
[
-1.49019 1.38392
-0.02109 1.38392
0.0281144 1.38392
1.49722 1.38392
]
[
-1.49019 1.39095
-0.02109 1.39095
0.0281144 1.39095
1.49722 1.39095
]
[
-1.48316 1.39798
-0.02109 1.39798
0.0281144 1.39798
1.49019 1.39798
]
[
-1.48316 1.405
-0.0281192 1.405
0.0351436 1.405
1.49019 1.405
]
[
-1.47614 1.41203
-0.0281192 1.41203
0.0351436 1.41203
1.48316 1.41203
]
[
-1.47614 1.41906
-0.0351484 1.41906
0.0421728 1.41906
1.48316 1.41906
]
[
-1.46911 1.42609
-0.0351484 1.42609
0.0421728 1.42609
1.47613 1.42609
]
[
-1.46911 1.43312
-0.0421776 1.43312
0.049202 1.43312
1.47613 1.43312
]
[
-1.46208 1.44015
-0.0421776 1.44015
0.049202 1.44015
1.4691 1.44015
]
[
-1.45505 1.44718
-0.0492068 1.44718
0.0562312 1.44718
1.46207 1.44718
]
[
-1.45505 1.45421
-0.0492068 1.45421
0.0562312 1.45421
1.46207 1.45421
]
[
-1.44802 1.46124
-0.056236 1.46124
0.0632604 1.46124
1.45504 1.46124
]
[
-1.44099 1.46827
-0.0632652 1.46827
0.0702896 1.46827
1.44801 1.46827
]
[
-1.44099 1.4753
-0.0632652 1.4753
0.0702896 1.4753
1.44801 1.4753
]
[
-1.43396 1.48233
-0.0702944 1.48233
0.0773188 1.48233
1.44098 1.48233
]
[
-1.42693 1.48935
-0.0773236 1.48935
0.084348 1.48935
1.43396 1.48935
]
[
-1.42693 1.49638
-0.0773236 1.49638
0.084348 1.49638
1.43396 1.49638
]
[
-1.4199 1.50341
-0.0843528 1.50341
0.0913772 1.50341
1.42693 1.50341
]
[
-1.41287 1.51044
-0.091382 1.51044
0.0984064 1.51044
1.4199 1.51044
]
[
-1.40584 1.51747
-0.0984112 1.51747
0.105436 1.51747
1.41287 1.51747
]
[
-1.40584 1.5245
-0.10544 1.5245
0.112465 1.5245
1.41287 1.5245
]
[
-1.39881 1.53153
-0.11247 1.53153
0.119494 1.53153
1.40584 1.53153
]
[
-1.39178 1.53856
-0.11247 1.53856
0.119494 1.53856
1.39881 1.53856
]
[
-1.38476 1.54559
-0.119499 1.54559
0.126523 1.54559
1.39178 1.54559
]
[
-1.37773 1.55262
-0.126528 1.55262
0.133552 1.55262
1.38475 1.55262
]
[
-1.3707 1.55965
-0.133557 1.55965
0.140582 1.55965
1.37772 1.55965
]
[
-1.36367 1.56668
-0.140586 1.56668
0.147611 1.56668
1.37069 1.56668
]
[
-1.35664 1.5737
-0.147616 1.5737
0.15464 1.5737
1.36366 1.5737
]
[
-1.34961 1.58073
-0.154645 1.58073
0.161669 1.58073
1.35663 1.58073
]
[
-1.34258 1.58776
-0.168703 1.58776
0.175728 1.58776
1.3496 1.58776
]
[
-1.33555 1.59479
-0.175732 1.59479
0.182757 1.59479
1.34258 1.59479
]
[
-1.32852 1.60182
-0.182762 1.60182
0.189786 1.60182
1.33555 1.60182
]
[
-1.32149 1.60885
-0.189791 1.60885
0.196815 1.60885
1.32852 1.60885
]
[
-1.31446 1.61588
-0.19682 1.61588
0.203844 1.61588
1.32149 1.61588
]
[
-1.30743 1.62291
-0.210878 1.62291
0.217903 1.62291
1.31446 1.62291
]
[
-1.3004 1.62994
-0.217908 1.62994
0.224932 1.62994
1.30743 1.62994
]
[
-1.28635 1.63697
-0.224937 1.63697
0.231961 1.63697
1.29337 1.63697
]
[
-1.27932 1.644
-0.238995 1.644
0.24602 1.644
1.28634 1.644
]
[
-1.27229 1.65103
-0.246024 1.65103
0.253049 1.65103
1.27931 1.65103
]
[
-1.25823 1.65805
-0.260083 1.65805
0.267107 1.65805
1.26525 1.65805
]
[
-1.2512 1.66508
-0.267112 1.66508
0.274137 1.66508
1.25822 1.66508
]
[
-1.24417 1.67211
-0.281171 1.67211
0.288195 1.67211
1.25119 1.67211
]
[
-1.23011 1.67914
-0.295229 1.67914
0.302253 1.67914
1.23714 1.67914
]
[
-1.21605 1.68617
-0.302258 1.68617
0.309283 1.68617
1.22308 1.68617
]
[
-1.20902 1.6932
-0.316317 1.6932
0.323341 1.6932
1.21605 1.6932
]
[
-1.19497 1.70023
-0.330375 1.70023
0.337399 1.70023
1.20199 1.70023
]
[
-1.18091 1.70726
-0.344433 1.70726
0.351458 1.70726
1.18793 1.70726
]
[
-1.16685 1.71429
-0.358492 1.71429
0.365516 1.71429
1.17387 1.71429
]
[
-1.15279 1.72132
-0.37255 1.72132
0.379575 1.72132
1.15981 1.72132
]
[
-1.13873 1.72835
-0.386609 1.72835
0.393633 1.72835
1.14576 1.72835
]
[
-1.12467 1.73538
-0.407696 1.73538
0.414721 1.73538
1.1317 1.73538
]
[
-1.11062 1.7424
-0.421755 1.7424
0.428779 1.7424
1.11764 1.7424
]
[
-1.08953 1.74943
-0.442842 1.74943
0.449867 1.74943
1.09655 1.74943
]
[
-1.07547 1.75646
-0.46393 1.75646
0.470954 1.75646
1.08249 1.75646
]
[
-1.05438 1.76349
-0.485017 1.76349
0.492042 1.76349
1.06141 1.76349
]
[
-1.03329 1.77052
-0.506105 1.77052
0.513129 1.77052
1.04032 1.77052
]
[
-1.00518 1.77755
-0.534222 1.77755
0.541246 1.77755
1.0122 1.77755
]
[
-0.97706 1.78458
-0.562338 1.78458
0.569363 1.78458
0.984084 1.78458
]
[
-0.948943 1.79161
-0.597484 1.79161
0.604509 1.79161
0.955967 1.79161
]
[
-0.906768 1.79864
-0.639659 1.79864
0.646684 1.79864
0.913792 1.79864
]
[
-0.836476 1.80567
-0.709951 1.80567
0.716976 1.80567
0.843501 1.80567
]
[
]
[
]
[
]
[
]
[
]
[
]
[
]
[
]
[
]
[
]
[
]
[
]
[
]
[
]
[
]
[
]
[
]
[
]
[
]
[
]
[
]
[
]
[
]
[
]
[
]
[
]
[
]
[
]
[
]
[
]
[
]
[
]
[
]
[
]
[
]
[
]
[
]
[
]
[
]
[
]
[
]
[
]
[
]
[
]
[
]
[
]
[
]
[
]
[
]
[
]
[
]
[
]
[
]
[
]
[
]
[
]
[
]
[
]
[
]
[
]
[
]
[
]
[
]
[
]
[
]
[
]
[
]
[
]
[
]
[
]
[
]
[
]
[
]
[
]
[
]
[
]
[
]
[
]
[
]
[
]
[
]
[
]
[
]
[
]
[
]
[
]
[
]
[
]
[
]
[
]
[
]
[
]
[
]
[
]
[
]
[
]
[
]
[
]
[
]
