%!PS-Adobe-3.0 EPSF-3.0
%%BoundingBox: -1 -37 180 259 
%%HiResBoundingBox: -0.2 -36.06541 179.5271 258.43044 
%%Creator: MetaPost 1.005
%%CreationDate: 2009.10.22:1445
%%Pages: 1
%%DocumentResources: procset mpost-minimal
%%+ font CMR17
%%DocumentSuppliedResources: procset mpost-minimal
%%DocumentNeededResources: font CMR17
%%IncludeResource: font CMR17
%%EndComments
%%BeginProlog
%%BeginResource: procset mpost-minimal
/bd{bind def}bind def/fshow {exch findfont exch scalefont setfont show}bd
/fcp{findfont dup length dict begin{1 index/FID ne{def}{pop pop}ifelse}forall}bd
/fmc{FontMatrix dup length array copy dup dup}bd/fmd{/FontMatrix exch def}bd
/Amul{4 -1 roll exch mul 1000 div}bd/ExtendFont{fmc 0 get Amul 0 exch put fmd}bd
/SlantFont{fmc 2 get dup 0 eq{pop 1}if Amul FontMatrix 0 get mul 2 exch put fmd}bd
%%EndResource
%%EndProlog
%%BeginSetup
 /cmr17 /CMR17 def
%%EndSetup
%%Page: 1 1
 0.7 0.7 0.7 setrgbcolor 0 17.93271
 dtransform truncate idtransform setlinewidth pop [] 0 setdash 1 setlinejoin
 10 setmiterlimit
newpath 89.66356 244.33316 moveto
132.3908 244.94174 165.87755 208.3536 165.87755 164.75676 curveto
165.87755 121.15993 132.3908 84.5718 89.66356 85.18037 curveto
47.76907 85.7771 15.69113 122.03224 15.69113 164.75676 curveto
15.69113 207.48131 47.76907 243.73645 89.66356 244.33316 curveto closepath
 stroke
 1 setlinecap
newpath 128.41212 95.85231 moveto
128.41212 0 lineto
116.14232 -4.44911 103.19072 -6.72478 90.13918 -6.72478 curveto
77.08765 -6.72478 64.13605 -4.44911 51.86626 0 curveto
51.86626 96.58183 lineto stroke
 0 0 0 setrgbcolor 0.4
 0 dtransform exch truncate exch idtransform pop setlinewidth 2 setlinecap
newpath 0 -35.86542 moveto
0 251.05794 lineto stroke
newpath 8.96635 -35.86542 moveto
8.96635 251.05794 lineto stroke
newpath 89.66356 -35.86542 moveto
89.66356 251.05794 lineto stroke
newpath 170.36075 -35.86542 moveto
170.36075 251.05794 lineto stroke
 0 0.4 dtransform truncate idtransform setlinewidth pop
newpath 0 0 moveto
170.36075 0 lineto stroke
newpath 0 -35.86542 moveto
170.36075 -35.86542 lineto stroke
newpath 0 164.75676 moveto
170.36075 164.75676 lineto stroke
newpath 0 251.05794 moveto
170.36075 251.05794 lineto stroke
85.71588 247.33316 moveto
(1) cmr17 17.21544 fshow
 0 3 dtransform truncate idtransform setlinewidth pop 1 setlinecap
newpath 89.66356 244.33316 moveto 0 0 rlineto stroke
161.92989 167.75676 moveto
(2) cmr17 17.21544 fshow
newpath 165.87755 164.75676 moveto 0 0 rlineto stroke
85.71588 88.18037 moveto
(3) cmr17 17.21544 fshow
newpath 89.66356 85.18037 moveto 0 0 rlineto stroke
11.74345 167.75676 moveto
(4) cmr17 17.21544 fshow
newpath 15.69113 164.75676 moveto 0 0 rlineto stroke
124.46445 98.85231 moveto
(5) cmr17 17.21544 fshow
newpath 128.41212 95.85231 moveto 0 0 rlineto stroke
124.46445 3 moveto
(6) cmr17 17.21544 fshow
newpath 128.41212 0 moveto 0 0 rlineto stroke
82.24385 -3.72478 moveto
(67) cmr17 17.21544 fshow
newpath 90.13918 -6.72478 moveto 0 0 rlineto stroke
47.91858 3 moveto
(7) cmr17 17.21544 fshow
newpath 51.86626 0 moveto 0 0 rlineto stroke
47.91858 99.58183 moveto
(8) cmr17 17.21544 fshow
newpath 51.86626 96.58183 moveto 0 0 rlineto stroke
 0 0.4 dtransform truncate idtransform setlinewidth pop 2 setlinecap
newpath 0 0 moveto
179.3271 0 lineto stroke
newpath 0 251.05794 moveto
179.3271 251.05794 lineto stroke
newpath 0 -35.86542 moveto
179.3271 -35.86542 lineto stroke
 0.4 0 dtransform exch truncate exch idtransform pop setlinewidth
newpath 0 -35.86542 moveto
0 251.05794 lineto stroke
newpath 179.3271 -35.86542 moveto
179.3271 251.05794 lineto stroke
showpage
%%EOF
