%!PS-Adobe-3.0 EPSF-3.0
%%Creator: inkscape 0.46
%%Pages: 1
%%Orientation: Portrait
%%BoundingBox: 149 656 156 665
%%HiResBoundingBox: 149.0408 656.11624 155.65686 664.88738
%%EndComments
%%BeginSetup
%%EndSetup
%%Page: 1 1
0 792 translate
0.8 -0.8 scale
0 0 0 setrgbcolor
[] 0 setdash
1 setlinewidth
0 setlinejoin
0 setlinecap
gsave [1 0 0 1 0 0] concat
gsave [1.25 0 0 -1.25 0 990] concat
gsave [1 0 0 1 72 720] concat
gsave [1 0 0 -1 76.71 -62.76] concat
gsave
0 0 0 setrgbcolor
newpath
2.0967056 -3.4296461 moveto
2.0967035 -3.3291047 2.1583236 -3.265863 2.281566 -3.239921 curveto
2.4048038 -3.2139725 2.5783129 -3.2009998 2.8020938 -3.201003 curveto
2.8572248 -3.2009998 2.9123585 -3.2026214 2.9674952 -3.2058678 curveto
3.930715 -6.0371501 lineto
3.6193676 -6.2155179 3.2285667 -6.3047048 2.7583111 -6.3047111 curveto
2.3253487 -6.3047111 lineto
2.1729178 -6.3047048 2.0967035 -6.2544358 2.0967056 -6.153904 curveto
2.0967056 -3.4296461 lineto
1.3183462 -0.9048428 moveto
1.3183462 -5.7014826 lineto
1.3183449 -6.0582246 1.0118662 -6.2365984 0.39890919 -6.2366047 curveto
0.35350454 -6.2365984 0.33080241 -6.2982185 0.33080274 -6.421465 curveto
0.33080241 -6.5446987 0.35350454 -6.6063188 0.39890919 -6.6063254 curveto
0.77511546 -6.590103 1.1188905 -6.5819951 1.4302354 -6.5820017 curveto
1.7448206 -6.5819951 2.0577856 -6.5852382 2.3691314 -6.5917312 curveto
2.6837157 -6.601454 2.9383038 -6.6063188 3.1328966 -6.6063254 curveto
3.4896411 -6.6063188 3.8090925 -6.570644 4.0912516 -6.499301 curveto
4.1301696 -6.6111901 lineto
2.2718365 -7.1463122 lineto
2.2523753 -7.1527914 2.2410242 -7.1738719 2.2377833 -7.2095539 curveto
2.2345379 -7.2711668 2.2475105 -7.3441379 2.2767012 -7.4284675 curveto
2.3285895 -7.5711592 2.3804801 -7.6441303 2.4323731 -7.6473811 curveto
2.4469674 -7.6473811 lineto
4.3977306 -7.0782058 lineto
4.6506928 -7.0068492 4.7787976 -6.9419859 4.7820456 -6.8836159 curveto
4.7820456 -6.8690217 lineto
4.5923204 -6.3193054 lineto
4.6993402 -6.2641653 4.7982566 -6.2041668 4.88907 -6.1393098 curveto
5.3139192 -5.824717 5.5263462 -5.3739176 5.5263517 -4.7869103 curveto
5.5263462 -3.8885499 5.0933842 -3.3242399 4.2274645 -3.0939786 curveto
4.1366517 -3.0712734 4.1366517 -2.9788433 4.2274645 -2.8166881 curveto
4.7042049 -1.9799497 5.2863523 -1.2356443 5.9739084 -0.58376955 curveto
6.3338933 -0.24323707 6.6355072 -0.072971121 6.8787512 -0.072971194 curveto
6.9241486 -0.072971121 6.9468507 -0.045404253 6.9468576 0.0097294925 curveto
6.9468507 0.068106379 6.9241486 0.098916408 6.8787512 0.10215967 curveto
6.7425315 0.11513221 6.6338857 0.12161853 6.5528132 0.12161866 curveto
6.0241714 0.12161853 5.6333705 0.03405319 5.3804093 -0.14107764 curveto
4.9847383 -0.41674618 4.6425849 -0.74430543 4.3539479 -1.1237564 curveto
3.5026173 -2.3691314 lineto
3.4345074 -2.4664239 3.3745089 -2.5475029 3.3226217 -2.6123687 curveto
2.5588565 -0.38431495 lineto
2.6918236 -0.35188296 2.85236 -0.33566715 3.0404664 -0.33566749 curveto
3.0826245 -0.33566715 3.103705 -0.2740471 3.1037081 -0.15080713 curveto
3.103705 -0.027566868 3.0826245 0.03405319 3.0404664 0.034053224 curveto
2.8945211 0.021080546 2.690202 0.011351063 2.4275084 0.0048647462 curveto
2.0529229 1.0897032 lineto
2.0496777 1.1059179 2.0350835 1.1156474 2.0091402 1.1188916 curveto
1.9637339 1.1221337 1.8875197 1.1026747 1.7804971 1.0605147 curveto
1.6410394 1.0021367 1.5696899 0.95348931 1.5664483 0.91457229 curveto
1.5664483 0.9048428 lineto
1.8729273 0 lineto
1.8307643 0 1.7869817 0 1.7415792 0 curveto
1.1253768 0 0.69241486 0.011351063 0.44269191 0.034053224 curveto
0.40053037 0.03405319 0.37944983 -0.025945287 0.37945021 -0.14594239 curveto
0.37944983 -0.26918236 0.40053037 -0.33242399 0.44269191 -0.33566749 curveto
1.0264604 -0.33566715 1.3183449 -0.52539207 1.3183462 -0.9048428 curveto
4.3685421 -5.6674294 moveto
3.5512648 -3.278839 lineto
4.3069177 -3.4636959 4.6847459 -3.9663858 4.6847506 -4.7869103 curveto
4.6847459 -5.1209511 4.5793432 -5.4144571 4.3685421 -5.6674294 curveto
2.1210294 -0.72971194 moveto
2.8604708 -2.894524 lineto
2.82155 -2.8977643 2.7793889 -2.8993859 2.7339874 -2.8993888 curveto
2.5523676 -2.8993859 2.4129117 -2.9042506 2.3156192 -2.913983 curveto
2.2183221 -2.9269527 2.156702 -2.9237096 2.1307589 -2.9042535 curveto
2.1080546 -2.8847916 2.0967035 -2.8556032 2.0967056 -2.8166881 curveto
2.0967056 -0.9048428 lineto
2.0967035 -0.84322184 2.1048114 -0.78484494 2.1210294 -0.72971194 curveto
fill
grestore
grestore
grestore
grestore
grestore
showpage
%%EOF
