%!PS-Adobe-3.0 EPSF-3.0
%%Creator: inkscape 0.46
%%Pages: 1
%%Orientation: Portrait
%%BoundingBox: 148 655 156 665
%%HiResBoundingBox: 148.80729 655.58599 155.15092 664.43982
%%EndComments
%%BeginSetup
%%EndSetup
%%Page: 1 1
0 792 translate
0.8 -0.8 scale
0 0 0 setrgbcolor
[] 0 setdash
1 setlinewidth
0 setlinejoin
0 setlinecap
gsave [1 0 0 1 0 0] concat
gsave [1.25 0 0 -1.25 0 990] concat
gsave [1 0 0 1 72 720] concat
gsave [1 0 0 -1 76.71 -62.76] concat
gsave
0 0 0 setrgbcolor
newpath
2.2377833 0.89997805 moveto
2.3318327 0.89024767 2.3788585 0.9794346 2.3788609 1.1675391 curveto
2.3788585 1.3556413 2.3593996 1.461044 2.320484 1.4837476 curveto
2.1388646 1.5972568 1.9734634 1.6540121 1.8242798 1.6540137 curveto
1.66212 1.6540121 1.511313 1.5907704 1.3718584 1.4642886 curveto
1.2324011 1.3378039 1.1626732 1.1075395 1.1626744 0.77349465 curveto
1.1626732 0.60484951 1.1886185 0.44917779 1.2405103 0.30647901 curveto
2.1356236 -2.1064351 lineto
0.87565432 -5.7014826 lineto
0.74592701 -6.0744404 0.50755468 -6.2609221 0.16053663 -6.2609284 curveto
0.11837537 -6.2609221 0.097294827 -6.3225422 0.097294925 -6.4457888 curveto
0.097294827 -6.5690224 0.11837537 -6.6306425 0.16053663 -6.6306491 curveto
0.34539664 -6.6144267 0.71511698 -6.6063188 1.2696988 -6.6063254 curveto
1.824278 -6.6063188 2.1972415 -6.6144267 2.3885904 -6.6306491 curveto
2.4307491 -6.6306425 2.4518297 -6.5690224 2.4518321 -6.4457888 curveto
2.4518297 -6.3225422 2.4307491 -6.2609221 2.3885904 -6.2609284 curveto
1.924816 -6.2609221 1.69293 -6.1409252 1.6929317 -5.9009372 curveto
1.69293 -5.8328249 1.7042811 -5.7663401 1.7269849 -5.7014826 curveto
2.568586 -3.2691095 lineto
3.5026173 -5.7841833 lineto
3.5836928 -5.9982261 3.6242323 -6.1733568 3.6242359 -6.3095759 curveto
3.6242323 -6.4490255 3.617746 -6.5560498 3.604777 -6.6306491 curveto
3.5561295 -6.9468576 lineto
3.5269375 -7.1154951 3.5642338 -7.1998172 3.6680187 -7.1998244 curveto
4.1253048 -7.1998244 lineto
4.2420545 -7.1998172 4.3004314 -7.134954 4.3004357 -7.0052346 curveto
4.3004314 -6.8787443 4.2582703 -6.7003705 4.1739523 -6.4701125 curveto
2.7583111 -2.7193931 lineto
3.2058678 -1.4205059 lineto
3.2285667 -1.3556413 3.2561336 -1.3232097 3.2885685 -1.323211 curveto
3.3242399 -1.3232097 3.35505 -1.3588844 3.3809986 -1.4302354 curveto
4.9328527 -5.6576999 lineto
4.9652794 -5.7452596 4.9814952 -5.8198523 4.9815001 -5.8814782 curveto
4.9814952 -6.1344389 4.816094 -6.2609221 4.485296 -6.2609284 curveto
4.4398873 -6.2609221 4.4171852 -6.3225422 4.4171896 -6.4457888 curveto
4.4171852 -6.5690224 4.4398873 -6.6306425 4.485296 -6.6306491 curveto
4.6798812 -6.6144267 4.9944678 -6.6063188 5.4290568 -6.6063254 curveto
5.8668781 -6.6063188 6.1814647 -6.6144267 6.3728176 -6.6306491 curveto
6.4182155 -6.6306425 6.4409176 -6.5690224 6.440924 -6.4457888 curveto
6.4409176 -6.3225422 6.4182155 -6.2609221 6.3728176 -6.2609284 curveto
5.8766076 -6.2609221 5.573372 -6.1214662 5.46311 -5.8425602 curveto
3.1474908 0.063241701 lineto
3.1150561 0.14432066 3.072895 0.18486017 3.0210074 0.18486036 curveto
2.9658707 0.18486017 2.9139801 0.11351063 2.8653355 -0.029188477 curveto
2.3253487 -1.571313 lineto
1.7123907 0.048647462 lineto
1.6702279 0.16215805 1.6491473 0.27891184 1.649149 0.39890919 curveto
1.6491473 0.76538598 1.7918464 0.93565192 2.0772466 0.90970755 curveto
2.2377833 0.89997805 lineto
fill
grestore
grestore
grestore
grestore
grestore
showpage
%%EOF
