%!PS-Adobe-3.0 EPSF-3.0
%%BoundingBox: 0 0 14 16
%%HiResBoundingBox: 0.900000 0.400000 13.753125 15.799609
%.............................................
%%Creator: ESP Ghostscript 81501 (epswrite)
%%CreationDate: 2007/03/11 19:03:00
%%DocumentData: Clean7Bit
%%LanguageLevel: 2
%%EndComments
%%BeginProlog
% This copyright applies to everything between here and the %%EndProlog:
% Copyright (C) 2004 artofcode LLC, Benicia, CA.  All rights reserved.
%%BeginResource: procset GS_epswrite_2_0_1001
/GS_epswrite_2_0_1001 80 dict dup begin
/PageSize 2 array def/setpagesize{ PageSize aload pop 3 index eq exch
4 index eq and{ pop pop pop}{ PageSize dup  1
5 -1 roll put 0 4 -1 roll put dup null eq {false} {dup where} ifelse{ exch get exec}
{ pop/setpagedevice where
{ pop 1 dict dup /PageSize PageSize put setpagedevice}
{ /setpage where{ pop PageSize aload pop pageparams 3 {exch pop} repeat
setpage}if}ifelse}ifelse}ifelse} bind def
/!{bind def}bind def/#{load def}!/N/counttomark #
/rG{3{3 -1 roll 255 div}repeat setrgbcolor}!/G{255 div setgray}!/K{0 G}!
/r6{dup 3 -1 roll rG}!/r5{dup 3 1 roll rG}!/r3{dup rG}!
/w/setlinewidth #/J/setlinecap #
/j/setlinejoin #/M/setmiterlimit #/d/setdash #/i/setflat #
/m/moveto #/l/lineto #/c/rcurveto #
/p{N 2 idiv{N -2 roll rlineto}repeat}!
/P{N 0 gt{N -2 roll moveto p}if}!
/h{p closepath}!/H{P closepath}!
/lx{0 rlineto}!/ly{0 exch rlineto}!/v{0 0 6 2 roll c}!/y{2 copy c}!
/re{4 -2 roll m exch dup lx exch ly neg lx h}!
/^{3 index neg 3 index neg}!
/f{P fill}!/f*{P eofill}!/s{H stroke}!/S{P stroke}!
/q/gsave #/Q/grestore #/rf{re fill}!
/Y{P clip newpath}!/Y*{P eoclip newpath}!/rY{re Y}!
/|={pop exch 4 1 roll 1 array astore cvx 3 array astore cvx exch 1 index def exec}!
/|{exch string readstring |=}!
/+{dup type/nametype eq{2 index 7 add -3 bitshift 2 index mul}if}!
/@/currentfile #/${+ @ |}!
/B{{2 copy string{readstring pop}aload pop 4 array astore cvx
3 1 roll}repeat pop pop true}!
/Ix{[1 0 0 1 11 -2 roll exch neg exch neg]exch}!
/,{true exch Ix imagemask}!/If{false exch Ix imagemask}!/I{exch Ix image}!
/Ic{exch Ix false 3 colorimage}!
/F{/Columns counttomark 3 add -2 roll/Rows exch/K -1/BlackIs1 true>>
/CCITTFaxDecode filter}!/FX{<</EndOfBlock false F}!
/X{/ASCII85Decode filter}!/@X{@ X}!/&2{2 index 2 index}!
/@F{@ &2<<F}!/@C{@X &2 FX}!
/$X{+ @X |}!/&4{4 index 4 index}!/$F{+ @ &4<<F |}!/$C{+ @X &4 FX |}!
/IC{3 1 roll 10 dict begin 1{/ImageType/Interpolate/Decode/DataSource
/ImageMatrix/BitsPerComponent/Height/Width}{exch def}forall
currentdict end image}!
/~{@ read {pop} if}!
end def
%%EndResource
/pagesave null def
%%EndProlog
%%Page: 1 1
%%BeginPageSetup
GS_epswrite_2_0_1001 begin
/pagesave save store 197 dict begin
0.1 0.1 scale
%%EndPageSetup
gsave mark
Q q
0 0 140 0 0 160 ^ Y
0.2 i
K
65.05 99.04 m
3.3 6.43 5.57 10.99 6.79 14.04 c
-49.96 0 p
-3.55 0 -7.79 -5.71 -12.87 -16.96 c
1.7 0.64 4.91 0.96 9.65 0.96 c
-6.43 -8.53 -9.65 -15.71 -9.65 -21.88 c
0 -9.35 9.41 -18.2 18.81 -18.2 c
8.39 0 16.46 3.95 24.18 12 c
0 -51.39 p
0 -4.6 1.38 -9.19 4.14 -13.61 c
10.86 12.68 p
-1.94 2.37 -3 5.58 -3 9.3 c
0 52.26 p
0 9.98 0.35 16.91 1.05 20.8 c
h
52 97.98 0 -20.98 P
-5.19 -4.67 -10.04 -7 -14.39 -7 c
-4.35 0 -8.2 2.12 -11.55 6.2 c
-3.01 3.91 -4.52 7.99 -4.52 12.4 c
0 4.57 1.51 7.5 4.52 8.48 c
h
f
55.39 152.35 -3.05 4.23 -25.23 -37.94 H
f
90 99 m
-1.04 6.82 -2.95 11.54 -6.07 13.99 c
-4.68 -5.59 -8.32 -9.81 -10.93 -12.69 c
3.39 -2.37 5 -5.58 5 -9.3 c
0 -52.52 p
0 -11.72 -1.45 -23.28 -4.15 -34.49 c
5.38 1.36 9.03 2.88 11.46 4.75 c
3.13 2.38 4.69 6.11 4.69 10.68 c
0 71.57 p
5.38 5.11 10.25 7.83 14.45 7.83 c
4.37 0 8.23 -2.2 11.42 -6.61 c
3.02 -3.89 4.54 -8.3 4.54 -12.87 c
0 -6.1 -2.18 -9.14 -6.71 -9.14 c
-2.52 0 -5.37 1.21 -8.57 3.79 c
-8.06 -10.4 p
2.52 -4.46 5.04 -6.6 7.39 -6.6 c
5.88 0 12.09 4.55 18.81 13.5 c
6.38 8.61 9.75 15.86 9.75 22.1 c
0 9.28 -9.58 18.4 -18.81 18.4 c
-5.21 0 -9.57 -1.03 -13.44 -3.09 c
-3.19 -1.71 -6.72 -4.8 -10.75 -8.91 c
h
f
137.53 52 m
-4.57 -2.62 -8.8 -4 -12.7 -4 c
-4.06 0 -14.05 4 -18.29 4 c
-7.29 0 -14.06 -5.21 -20.32 -15.79 c
3.22 3.31 6.43 4.79 9.99 4.79 c
4.06 0 16.43 -5 21.51 -5 c
6.44 0 13.04 5.33 19.82 16 c
h
f
106.03 149.09 6.43 -6.39 8.81 8.74 -6.44 6.56 H
115.85 134.8 6.61 -6.81 8.81 9.25 -6.44 6.64 H
93.33 134.56 6.61 -6.56 8.8 8.98 -6.61 6.74 H
f
cleartomark end end pagesave restore showpage
%%PageTrailer
%%Trailer
%%Pages: 1
