%!PS-Adobe-2.0 EPSF-2.0
%%
%% to test the checksum, uncomment    \OnlyDescription
%% in the driver
%%\fi
%%
%% \CharacterTable
%%  {Upper-case    \A\B\C\D\E\F\G\H\I\J\K\L\M\N\O\P\Q\R\S\T\U\V\W\X\Y\Z
%%   Lower-case    \a\b\c\d\e\f\g\h\i\j\k\l\m\n\o\p\q\r\s\t\u\v\w\x\y\z
%%   Digits        \0\1\2\3\4\5\6\7\8\9
%%   Exclamation   \!     Double quote  \"     Hash (number) \#
%%   Dollar        \$     Percent       \%     Ampersand     \&
%%   Acute accent  \'     Left paren    \(     Right paren   \)
%%   Asterisk      \*     Plus          \+     Comma         \,
%%   Minus         \-     Point         \.     Solidus       \/
%%   Colon         \:     Semicolon     \;     Less than     \<
%%   Equals        \=     Greater than  \>     Question mark \?
%%   Commercial at \@     Left bracket  \[     Backslash     \\
%%   Right bracket \]     Circumflex    \^     Underscore    \_
%%   Grave accent  \`     Left brace    \{     Vertical bar  \|
%%   Right brace   \}     Tilde         \~}

%%Title: body.eps
%%Creator: fig2dev Version 3.2 Patchlevel 1
%%CreationDate: Tue Jun  1 10:19:01 1999
%%For: Juergen.Vollmer@acm.org
%%Orientation: Portrait
%%BoundingBox: 0 0 101 91
%%Pages: 0
%%BeginSetup
%%EndSetup
%%Magnification: 1.0000
%%EndComments
/$F2psDict 200 dict def
$F2psDict begin
$F2psDict /mtrx matrix put
/col-1 {0 setgray} bind def
/col0 {0.000 0.000 0.000 srgb} bind def
/col1 {0.000 0.000 1.000 srgb} bind def
/col2 {0.000 1.000 0.000 srgb} bind def
/col3 {0.000 1.000 1.000 srgb} bind def
/col4 {1.000 0.000 0.000 srgb} bind def
/col5 {1.000 0.000 1.000 srgb} bind def
/col6 {1.000 1.000 0.000 srgb} bind def
/col7 {1.000 1.000 1.000 srgb} bind def
/col8 {0.000 0.000 0.560 srgb} bind def
/col9 {0.000 0.000 0.690 srgb} bind def
/col10 {0.000 0.000 0.820 srgb} bind def
/col11 {0.530 0.810 1.000 srgb} bind def
/col12 {0.000 0.560 0.000 srgb} bind def
/col13 {0.000 0.690 0.000 srgb} bind def
/col14 {0.000 0.820 0.000 srgb} bind def
/col15 {0.000 0.560 0.560 srgb} bind def
/col16 {0.000 0.690 0.690 srgb} bind def
/col17 {0.000 0.820 0.820 srgb} bind def
/col18 {0.560 0.000 0.000 srgb} bind def
/col19 {0.690 0.000 0.000 srgb} bind def
/col20 {0.820 0.000 0.000 srgb} bind def
/col21 {0.560 0.000 0.560 srgb} bind def
/col22 {0.690 0.000 0.690 srgb} bind def
/col23 {0.820 0.000 0.820 srgb} bind def
/col24 {0.500 0.190 0.000 srgb} bind def
/col25 {0.630 0.250 0.000 srgb} bind def
/col26 {0.750 0.380 0.000 srgb} bind def
/col27 {1.000 0.500 0.500 srgb} bind def
/col28 {1.000 0.630 0.630 srgb} bind def
/col29 {1.000 0.750 0.750 srgb} bind def
/col30 {1.000 0.880 0.880 srgb} bind def
/col31 {1.000 0.840 0.000 srgb} bind def

end
save
-172.0 122.0 translate
1 -1 scale

/cp {closepath} bind def
/ef {eofill} bind def
/gr {grestore} bind def
/gs {gsave} bind def
/sa {save} bind def
/rs {restore} bind def
/l {lineto} bind def
/m {moveto} bind def
/rm {rmoveto} bind def
/n {newpath} bind def
/s {stroke} bind def
/sh {show} bind def
/slc {setlinecap} bind def
/slj {setlinejoin} bind def
/slw {setlinewidth} bind def
/srgb {setrgbcolor} bind def
/rot {rotate} bind def
/sc {scale} bind def
/sd {setdash} bind def
/ff {findfont} bind def
/sf {setfont} bind def
/scf {scalefont} bind def
/sw {stringwidth} bind def
/tr {translate} bind def
/tnt {dup dup currentrgbcolor
  4 -2 roll dup 1 exch sub 3 -1 roll mul add
  4 -2 roll dup 1 exch sub 3 -1 roll mul add
  4 -2 roll dup 1 exch sub 3 -1 roll mul add srgb}
  bind def
/shd {dup dup currentrgbcolor 4 -2 roll mul 4 -2 roll mul
  4 -2 roll mul srgb} bind def
/$F2psBegin {$F2psDict begin /$F2psEnteredState save def} def
/$F2psEnd {$F2psEnteredState restore end} def
%%EndProlog

$F2psBegin
10 setmiterlimit
n -1000 2922 m -1000 -1000 l 5333 -1000 l 5333 2922 l cp clip
 0.06299 0.06299 sc
7.500 slw
n 2745 900 m 2745 920 l 2747 941 l 2753 964 l 2761 988 l 2772 1014 l
 2786 1041 l 2803 1070 l 2822 1101 l 2843 1133 l 2866 1167 l
 2892 1201 l 2918 1237 l 2947 1274 l 2976 1312 l 3007 1350 l
 3038 1388 l 3070 1427 l 3102 1465 l 3135 1503 l 3167 1540 l
 3199 1577 l 3231 1612 l 3262 1646 l 3293 1679 l 3323 1710 l
 3352 1739 l 3380 1766 l 3407 1791 l 3434 1813 l 3459 1834 l
 3484 1851 l 3508 1867 l 3532 1880 l 3555 1890 l 3581 1899 l
 3608 1905 l 3634 1909 l 3662 1910 l 3690 1908 l 3719 1904 l
 3748 1899 l 3779 1891 l 3810 1882 l 3842 1871 l 3874 1859 l
 3907 1846 l 3939 1831 l 3972 1816 l 4005 1801 l 4037 1784 l
 4069 1768 l 4100 1751 l 4129 1734 l 4158 1716 l 4185 1699 l
 4209 1681 l 4232 1664 l 4253 1646 l 4271 1628 l 4287 1609 l
 4299 1591 l 4309 1571 l 4316 1551 l 4320 1530 l 4321 1509 l
 4319 1487 l 4314 1463 l 4306 1438 l 4295 1411 l 4282 1383 l
 4266 1354 l 4248 1323 l 4227 1290 l 4205 1257 l 4181 1222 l
 4155 1187 l 4127 1151 l 4099 1115 l 4070 1078 l 4041 1041 l
 4011 1004 l 3982 967 l 3953 931 l 3924 896 l 3896 861 l
 3870 828 l 3844 796 l 3820 765 l 3798 736 l 3777 709 l
 3758 683 l 3741 660 l 3726 638 l 3712 618 l 3700 601 l
 3690 585 l 3683 574 l 3676 564 l 3670 555 l 3666 547 l
 3662 540 l 3659 534 l 3657 529 l 3657 525 l 3657 522 l
 3658 519 l 3660 518 l 3663 517 l 3667 516 l 3671 516 l
 3676 517 l 3681 518 l 3687 520 l 3693 521 l 3699 524 l
 3705 526 l 3711 528 l 3717 531 l 3723 534 l 3728 537 l
 3733 540 l 3737 543 l 3740 546 l 3743 549 l 3745 552 l
 3746 555 l 3746 557 l 3744 560 l 3742 563 l 3738 566 l
 3734 569 l 3727 572 l 3720 575 l 3711 578 l 3701 581 l
 3690 585 l 3673 591 l 3654 597 l 3632 603 l 3607 610 l
 3579 617 l 3549 625 l 3516 632 l 3480 640 l 3442 648 l
 3401 655 l 3359 663 l 3315 671 l 3271 679 l 3225 688 l
 3180 696 l 3134 705 l 3089 714 l 3046 723 l 3004 734 l
 2964 744 l 2926 755 l 2891 767 l 2860 780 l 2832 794 l
 2807 808 l 2786 824 l 2770 841 l 2758 859 l 2749 879 l
 cp gs col0 s gr
$F2psEnd
rs
